0000.029 (0) Opened log file at time: Sun, 17 Jun 2018 18:45:12 +0000 on http://sportsii.com
0000.135 (0) UpdraftPlus WordPress backup plugin (https://updraftplus.com): 1.13.7 WP: 4.8.6 PHP: 5.5.38 (litespeed, Linux a2plcpnl0323.prod.iad2.secureserver.net 2.6.32-773.26.1.lve1.4.46.el6.x86_64 #1 SMP Tue Dec 5 18:55:41 EST 2017 x86_64) MySQL: 5.6.39 WPLANG: en_US Server: Apache safe_mode: 0 max_execution_time: 900 memory_limit: 256M (used: 67.6M | 68.8M) multisite: N openssl: OpenSSL 1.0.2k-fips  26 Jan 2017 mcrypt: Y LANG:  ZipArchive::addFile: N
0000.551 (0) Free space on disk containing Updraft's temporary directory: 1797987.2 MB
0000.562 (0) Tasks: Backup files: 1 (schedule: weekly) Backup DB:  (schedule: weekly)
0000.563 (0) Processed schedules. Combining jobs from identical schedules. Tasks now: Backup files: 1 Backup DB: 1
0000.622 (0) Requesting semaphore lock (fd) (apparently via scheduler: last_scheduled_action_called_at=1528657858, seconds_ago=603255)
0000.625 (0) Semaphore (fd, wp_options) was stuck, set lock time to 2018-06-17 18:45:13
0000.627 (0) Semaphore (fd, wp_options) reset to 1
0000.628 (0) Set semaphore last lock (fd) time to 2018-06-17 18:45:13
0000.629 (0) Semaphore lock (fd) complete
0000.633 (0) Backup run: resumption=0, nonce=75d09f5279bd, begun at=1529261112 (1s ago), job type=backup
0000.635 (0) Scheduling a resumption (1) after 300 seconds (1529261413) in case this run gets aborted
0000.757 (0) Checking if we have a zip executable available
0000.762 (0) Testing: /usr/bin/zip
0000.943 (0) Output: zip warning: binziptest/test.zip not found or empty
0000.974 (0) Output: adding: binziptest/subdir1/	(in=0) (out=0) (stored 0%)
0000.975 (0) Output: adding: binziptest/subdir1/subdir2/	(in=0) (out=0) (stored 0%)
0000.976 (0) Output: adding: binziptest/subdir1/subdir2/test.html	(in=131) (out=107) (deflated 18%)
0000.977 (0) Output: total bytes=131, compressed=107 -> 18% savings
0001.068 (0) Output: adding: binziptest/subdir1/subdir2/test2.html	(in=138) (out=113) (deflated 18%)
0001.070 (0) Output: total bytes=269, compressed=220 -> 18% savings
0001.087 (0) Working binary zip found: /usr/bin/zip
0001.252 (0) Zip engine: found/will use a binary zip: /usr/bin/zip
0001.253 (0) Creation of backups of directories: beginning
0001.257 (0) Beginning creation of dump of plugins (split every: 400 MB)
0009.877 (0) Total entities for the zip file: 1285 directories, 8241 files (0 skipped as non-modified), 114.8 MB
0009.880 (0) Adding batch to zip file (UpdraftPlus_BinZip): over 2.0 seconds have passed since the last write (0 MB, 1 (1) files added so far); re-opening (prior size: 0 KB)
0011.938 (0) backup_2018-06-17-1445_Sportsii_75d09f5279bd-plugins.zip.tmp: size is now: 0.30 MB
0011.945 (0) Zip: backup_2018-06-17-1445_Sportsii_75d09f5279bd-plugins.zip.tmp: 100 files added (on-disk size: 292 KB)
0011.950 (0) Zip: backup_2018-06-17-1445_Sportsii_75d09f5279bd-plugins.zip.tmp: 200 files added (on-disk size: 292 KB)
0011.954 (0) Zip: backup_2018-06-17-1445_Sportsii_75d09f5279bd-plugins.zip.tmp: 300 files added (on-disk size: 292 KB)
0011.959 (0) Zip: backup_2018-06-17-1445_Sportsii_75d09f5279bd-plugins.zip.tmp: 400 files added (on-disk size: 292 KB)
0011.964 (0) Zip: backup_2018-06-17-1445_Sportsii_75d09f5279bd-plugins.zip.tmp: 500 files added (on-disk size: 292 KB)
0011.965 (0) Adding batch to zip file (UpdraftPlus_BinZip): over 500 files added on this batch (16 MB, 8241 files batched, 501 (502) added so far); re-opening (prior size: 292 KB)
0027.713 (0) backup_2018-06-17-1445_Sportsii_75d09f5279bd-plugins.zip.tmp: size is now: 4.90 MB
0027.720 (0) Zip: backup_2018-06-17-1445_Sportsii_75d09f5279bd-plugins.zip.tmp: 600 files added (on-disk size: 5051.6 KB)
0027.725 (0) Zip: backup_2018-06-17-1445_Sportsii_75d09f5279bd-plugins.zip.tmp: 700 files added (on-disk size: 5051.6 KB)
0027.729 (0) Zip: backup_2018-06-17-1445_Sportsii_75d09f5279bd-plugins.zip.tmp: 800 files added (on-disk size: 5051.6 KB)
0027.734 (0) Zip: backup_2018-06-17-1445_Sportsii_75d09f5279bd-plugins.zip.tmp: 900 files added (on-disk size: 5051.6 KB)
0027.738 (0) Zip: backup_2018-06-17-1445_Sportsii_75d09f5279bd-plugins.zip.tmp: 1000 files added (on-disk size: 5051.6 KB)
0027.739 (0) Adding batch to zip file (UpdraftPlus_BinZip): over 500 files added on this batch (2.6 MB, 8241 files batched, 501 (1003) added so far); re-opening (prior size: 5051.6 KB)
0035.872 (0) Zip: backup_2018-06-17-1445_Sportsii_75d09f5279bd-plugins.zip.tmp: 1100 files added (on-disk size: 5860.9 KB)
0035.877 (0) Zip: backup_2018-06-17-1445_Sportsii_75d09f5279bd-plugins.zip.tmp: 1200 files added (on-disk size: 5860.9 KB)
0035.881 (0) Zip: backup_2018-06-17-1445_Sportsii_75d09f5279bd-plugins.zip.tmp: 1300 files added (on-disk size: 5860.9 KB)
0035.888 (0) Zip: backup_2018-06-17-1445_Sportsii_75d09f5279bd-plugins.zip.tmp: 1400 files added (on-disk size: 5860.9 KB)
0035.893 (0) Zip: backup_2018-06-17-1445_Sportsii_75d09f5279bd-plugins.zip.tmp: 1500 files added (on-disk size: 5860.9 KB)
0035.894 (0) Adding batch to zip file (UpdraftPlus_BinZip): over 500 files added on this batch (6.3 MB, 8241 files batched, 501 (1504) added so far); re-opening (prior size: 5860.9 KB)
0047.508 (0) backup_2018-06-17-1445_Sportsii_75d09f5279bd-plugins.zip.tmp: size is now: 7.60 MB
0047.516 (0) Zip: backup_2018-06-17-1445_Sportsii_75d09f5279bd-plugins.zip.tmp: 1600 files added (on-disk size: 7831.4 KB)
0047.520 (0) Zip: backup_2018-06-17-1445_Sportsii_75d09f5279bd-plugins.zip.tmp: 1700 files added (on-disk size: 7831.4 KB)
0047.525 (0) Zip: backup_2018-06-17-1445_Sportsii_75d09f5279bd-plugins.zip.tmp: 1800 files added (on-disk size: 7831.4 KB)
0047.530 (0) Zip: backup_2018-06-17-1445_Sportsii_75d09f5279bd-plugins.zip.tmp: 1900 files added (on-disk size: 7831.4 KB)
0047.535 (0) Zip: backup_2018-06-17-1445_Sportsii_75d09f5279bd-plugins.zip.tmp: 2000 files added (on-disk size: 7831.4 KB)
0047.536 (0) Adding batch to zip file (UpdraftPlus_BinZip): over 500 files added on this batch (4.6 MB, 8241 files batched, 501 (2005) added so far); re-opening (prior size: 7831.4 KB)
0059.839 (0) backup_2018-06-17-1445_Sportsii_75d09f5279bd-plugins.zip.tmp: size is now: 9.20 MB
0059.851 (0) Zip: backup_2018-06-17-1445_Sportsii_75d09f5279bd-plugins.zip.tmp: 2100 files added (on-disk size: 9464.5 KB)
0059.859 (0) Zip: backup_2018-06-17-1445_Sportsii_75d09f5279bd-plugins.zip.tmp: 2200 files added (on-disk size: 9464.5 KB)
0059.867 (0) Zip: backup_2018-06-17-1445_Sportsii_75d09f5279bd-plugins.zip.tmp: 2300 files added (on-disk size: 9464.5 KB)
0059.875 (0) Zip: backup_2018-06-17-1445_Sportsii_75d09f5279bd-plugins.zip.tmp: 2400 files added (on-disk size: 9464.5 KB)
0059.882 (0) Zip: backup_2018-06-17-1445_Sportsii_75d09f5279bd-plugins.zip.tmp: 2500 files added (on-disk size: 9464.5 KB)
0059.884 (0) Adding batch to zip file (UpdraftPlus_BinZip): over 500 files added on this batch (3.9 MB, 8241 files batched, 501 (2506) added so far); re-opening (prior size: 9464.5 KB)
0074.177 (0) Zip: backup_2018-06-17-1445_Sportsii_75d09f5279bd-plugins.zip.tmp: 2600 files added (on-disk size: 10837.2 KB)
0074.182 (0) Zip: backup_2018-06-17-1445_Sportsii_75d09f5279bd-plugins.zip.tmp: 2700 files added (on-disk size: 10837.2 KB)
0074.186 (0) Zip: backup_2018-06-17-1445_Sportsii_75d09f5279bd-plugins.zip.tmp: 2800 files added (on-disk size: 10837.2 KB)
0074.190 (0) Zip: backup_2018-06-17-1445_Sportsii_75d09f5279bd-plugins.zip.tmp: 2900 files added (on-disk size: 10837.2 KB)
0074.195 (0) Zip: backup_2018-06-17-1445_Sportsii_75d09f5279bd-plugins.zip.tmp: 3000 files added (on-disk size: 10837.2 KB)
0074.196 (0) Adding batch to zip file (UpdraftPlus_BinZip): over 500 files added on this batch (1.5 MB, 8241 files batched, 501 (3007) added so far); re-opening (prior size: 10837.2 KB)
0082.810 (0) Zip: backup_2018-06-17-1445_Sportsii_75d09f5279bd-plugins.zip.tmp: 3100 files added (on-disk size: 11604.2 KB)
0082.816 (0) Zip: backup_2018-06-17-1445_Sportsii_75d09f5279bd-plugins.zip.tmp: 3200 files added (on-disk size: 11604.2 KB)
0082.821 (0) Zip: backup_2018-06-17-1445_Sportsii_75d09f5279bd-plugins.zip.tmp: 3300 files added (on-disk size: 11604.2 KB)
0082.826 (0) Zip: backup_2018-06-17-1445_Sportsii_75d09f5279bd-plugins.zip.tmp: 3400 files added (on-disk size: 11604.2 KB)
0082.831 (0) Zip: backup_2018-06-17-1445_Sportsii_75d09f5279bd-plugins.zip.tmp: 3500 files added (on-disk size: 11604.2 KB)
0082.833 (0) Adding batch to zip file (UpdraftPlus_BinZip): over 500 files added on this batch (3.9 MB, 8241 files batched, 501 (3508) added so far); re-opening (prior size: 11604.2 KB)
0087.659 (0) Zip: backup_2018-06-17-1445_Sportsii_75d09f5279bd-plugins.zip.tmp: 3600 files added (on-disk size: 12921.6 KB)
0087.664 (0) Zip: backup_2018-06-17-1445_Sportsii_75d09f5279bd-plugins.zip.tmp: 3700 files added (on-disk size: 12921.6 KB)
0087.668 (0) Zip: backup_2018-06-17-1445_Sportsii_75d09f5279bd-plugins.zip.tmp: 3800 files added (on-disk size: 12921.6 KB)
0087.673 (0) Zip: backup_2018-06-17-1445_Sportsii_75d09f5279bd-plugins.zip.tmp: 3900 files added (on-disk size: 12921.6 KB)
0087.677 (0) Zip: backup_2018-06-17-1445_Sportsii_75d09f5279bd-plugins.zip.tmp: 4000 files added (on-disk size: 12921.6 KB)
0087.679 (0) Adding batch to zip file (UpdraftPlus_BinZip): over 500 files added on this batch (6.3 MB, 8241 files batched, 501 (4009) added so far); re-opening (prior size: 12921.6 KB)
0101.256 (0) Zip: backup_2018-06-17-1445_Sportsii_75d09f5279bd-plugins.zip.tmp: 4100 files added (on-disk size: 14674.6 KB)
0101.261 (0) Zip: backup_2018-06-17-1445_Sportsii_75d09f5279bd-plugins.zip.tmp: 4200 files added (on-disk size: 14674.6 KB)
0101.266 (0) Zip: backup_2018-06-17-1445_Sportsii_75d09f5279bd-plugins.zip.tmp: 4300 files added (on-disk size: 14674.6 KB)
0101.270 (0) Zip: backup_2018-06-17-1445_Sportsii_75d09f5279bd-plugins.zip.tmp: 4400 files added (on-disk size: 14674.6 KB)
0101.275 (0) Zip: backup_2018-06-17-1445_Sportsii_75d09f5279bd-plugins.zip.tmp: 4500 files added (on-disk size: 14674.6 KB)
0101.276 (0) Adding batch to zip file (UpdraftPlus_BinZip): over 500 files added on this batch (2.9 MB, 8241 files batched, 501 (4510) added so far); re-opening (prior size: 14674.6 KB)
0102.532 (0) Zip: backup_2018-06-17-1445_Sportsii_75d09f5279bd-plugins.zip.tmp: 4600 files added (on-disk size: 15747.7 KB)
0102.537 (0) Zip: backup_2018-06-17-1445_Sportsii_75d09f5279bd-plugins.zip.tmp: 4700 files added (on-disk size: 15747.7 KB)
0102.541 (0) Zip: backup_2018-06-17-1445_Sportsii_75d09f5279bd-plugins.zip.tmp: 4800 files added (on-disk size: 15747.7 KB)
0102.545 (0) Zip: backup_2018-06-17-1445_Sportsii_75d09f5279bd-plugins.zip.tmp: 4900 files added (on-disk size: 15747.7 KB)
0102.551 (0) Zip: backup_2018-06-17-1445_Sportsii_75d09f5279bd-plugins.zip.tmp: 5000 files added (on-disk size: 15747.7 KB)
0102.553 (0) Adding batch to zip file (UpdraftPlus_BinZip): over 500 files added on this batch (5.1 MB, 8241 files batched, 501 (5011) added so far); re-opening (prior size: 15747.7 KB)
0113.621 (0) Zip: backup_2018-06-17-1445_Sportsii_75d09f5279bd-plugins.zip.tmp: 5100 files added (on-disk size: 17516.2 KB)
0113.627 (0) Zip: backup_2018-06-17-1445_Sportsii_75d09f5279bd-plugins.zip.tmp: 5200 files added (on-disk size: 17516.2 KB)
0113.632 (0) Zip: backup_2018-06-17-1445_Sportsii_75d09f5279bd-plugins.zip.tmp: 5300 files added (on-disk size: 17516.2 KB)
0113.637 (0) Zip: backup_2018-06-17-1445_Sportsii_75d09f5279bd-plugins.zip.tmp: 5400 files added (on-disk size: 17516.2 KB)
0113.641 (0) Zip: backup_2018-06-17-1445_Sportsii_75d09f5279bd-plugins.zip.tmp: 5500 files added (on-disk size: 17516.2 KB)
0113.642 (0) Adding batch to zip file (UpdraftPlus_BinZip): over 500 files added on this batch (7.1 MB, 8241 files batched, 501 (5512) added so far); re-opening (prior size: 17516.2 KB)
0130.735 (0) backup_2018-06-17-1445_Sportsii_75d09f5279bd-plugins.zip.tmp: size is now: 22.90 MB
0130.743 (0) Zip: backup_2018-06-17-1445_Sportsii_75d09f5279bd-plugins.zip.tmp: 5600 files added (on-disk size: 23443.6 KB)
0130.748 (0) Zip: backup_2018-06-17-1445_Sportsii_75d09f5279bd-plugins.zip.tmp: 5700 files added (on-disk size: 23443.6 KB)
0130.752 (0) Zip: backup_2018-06-17-1445_Sportsii_75d09f5279bd-plugins.zip.tmp: 5800 files added (on-disk size: 23443.6 KB)
0130.757 (0) Zip: backup_2018-06-17-1445_Sportsii_75d09f5279bd-plugins.zip.tmp: 5900 files added (on-disk size: 23443.6 KB)
0130.761 (0) Zip: backup_2018-06-17-1445_Sportsii_75d09f5279bd-plugins.zip.tmp: 6000 files added (on-disk size: 23443.6 KB)
0130.762 (0) Adding batch to zip file (UpdraftPlus_BinZip): over 500 files added on this batch (9.9 MB, 8241 files batched, 501 (6013) added so far); re-opening (prior size: 23443.6 KB)
0145.489 (0) backup_2018-06-17-1445_Sportsii_75d09f5279bd-plugins.zip.tmp: size is now: 28.40 MB
0145.496 (0) Zip: backup_2018-06-17-1445_Sportsii_75d09f5279bd-plugins.zip.tmp: 6100 files added (on-disk size: 29074.3 KB)
0145.501 (0) Zip: backup_2018-06-17-1445_Sportsii_75d09f5279bd-plugins.zip.tmp: 6200 files added (on-disk size: 29074.3 KB)
0145.505 (0) Zip: backup_2018-06-17-1445_Sportsii_75d09f5279bd-plugins.zip.tmp: 6300 files added (on-disk size: 29074.3 KB)
0145.512 (0) Zip: backup_2018-06-17-1445_Sportsii_75d09f5279bd-plugins.zip.tmp: 6400 files added (on-disk size: 29074.3 KB)
0145.517 (0) Zip: backup_2018-06-17-1445_Sportsii_75d09f5279bd-plugins.zip.tmp: 6500 files added (on-disk size: 29074.3 KB)
0145.518 (0) Adding batch to zip file (UpdraftPlus_BinZip): over 500 files added on this batch (6.3 MB, 8241 files batched, 501 (6514) added so far); re-opening (prior size: 29074.3 KB)
0168.981 (0) Zip: backup_2018-06-17-1445_Sportsii_75d09f5279bd-plugins.zip.tmp: 6600 files added (on-disk size: 32866.1 KB)
0168.986 (0) Zip: backup_2018-06-17-1445_Sportsii_75d09f5279bd-plugins.zip.tmp: 6700 files added (on-disk size: 32866.1 KB)
0168.991 (0) Zip: backup_2018-06-17-1445_Sportsii_75d09f5279bd-plugins.zip.tmp: 6800 files added (on-disk size: 32866.1 KB)
0168.995 (0) Zip: backup_2018-06-17-1445_Sportsii_75d09f5279bd-plugins.zip.tmp: 6900 files added (on-disk size: 32866.1 KB)
0169.000 (0) Zip: backup_2018-06-17-1445_Sportsii_75d09f5279bd-plugins.zip.tmp: 7000 files added (on-disk size: 32866.1 KB)
0169.001 (0) Adding batch to zip file (UpdraftPlus_BinZip): over 500 files added on this batch (14 MB, 8241 files batched, 501 (7015) added so far); re-opening (prior size: 32866.1 KB)
0199.486 (0) Zip: backup_2018-06-17-1445_Sportsii_75d09f5279bd-plugins.zip.tmp: 7100 files added (on-disk size: 36688.1 KB)
0199.491 (0) Zip: backup_2018-06-17-1445_Sportsii_75d09f5279bd-plugins.zip.tmp: 7200 files added (on-disk size: 36688.1 KB)
0199.496 (0) Zip: backup_2018-06-17-1445_Sportsii_75d09f5279bd-plugins.zip.tmp: 7300 files added (on-disk size: 36688.1 KB)
0199.501 (0) Zip: backup_2018-06-17-1445_Sportsii_75d09f5279bd-plugins.zip.tmp: 7400 files added (on-disk size: 36688.1 KB)
0199.505 (0) Zip: backup_2018-06-17-1445_Sportsii_75d09f5279bd-plugins.zip.tmp: 7500 files added (on-disk size: 36688.1 KB)
0199.508 (0) Adding batch to zip file (UpdraftPlus_BinZip): over 500 files added on this batch (6 MB, 8241 files batched, 501 (7516) added so far); re-opening (prior size: 36688.1 KB)
0259.333 (0) The scheduled resumption is within 45 seconds - will reschedule
0259.336 (0) Rescheduling resumption 1: moving to 345 seconds from now (1529261717)
0259.339 (0) To decrease the likelihood of overlaps, increasing resumption interval to: 300 + 45 = 345
0259.343 (0) Zip: backup_2018-06-17-1445_Sportsii_75d09f5279bd-plugins.zip.tmp: 7600 files added (on-disk size: 38837.9 KB)
0259.347 (0) Zip: backup_2018-06-17-1445_Sportsii_75d09f5279bd-plugins.zip.tmp: 7700 files added (on-disk size: 38837.9 KB)
0259.352 (0) Zip: backup_2018-06-17-1445_Sportsii_75d09f5279bd-plugins.zip.tmp: 7800 files added (on-disk size: 38837.9 KB)
0259.356 (0) Zip: backup_2018-06-17-1445_Sportsii_75d09f5279bd-plugins.zip.tmp: 7900 files added (on-disk size: 38837.9 KB)
0259.360 (0) Zip: backup_2018-06-17-1445_Sportsii_75d09f5279bd-plugins.zip.tmp: 8000 files added (on-disk size: 38837.9 KB)
0259.362 (0) Adding batch to zip file (UpdraftPlus_BinZip): over 500 files added on this batch (16.1 MB, 8241 files batched, 501 (8017) added so far); re-opening (prior size: 38837.9 KB)
4909.542 (1) Opened log file at time: Sun, 17 Jun 2018 20:07:02 +0000 on http://sportsii.com
4909.543 (1) UpdraftPlus WordPress backup plugin (https://updraftplus.com): 1.13.7 WP: 4.8.6 PHP: 5.5.38 (litespeed, Linux a2plcpnl0323.prod.iad2.secureserver.net 2.6.32-773.26.1.lve1.4.46.el6.x86_64 #1 SMP Tue Dec 5 18:55:41 EST 2017 x86_64) MySQL: 5.6.39 WPLANG: en_US Server: Apache safe_mode: 0 max_execution_time: 900 memory_limit: 256M (used: 65.3M | 65.8M) multisite: N openssl: OpenSSL 1.0.2k-fips  26 Jan 2017 mcrypt: Y LANG:  ZipArchive::addFile: N
4909.712 (1) Free space on disk containing Updraft's temporary directory: 1798070.5 MB
4909.715 (1) Backup run: resumption=1, nonce=75d09f5279bd, begun at=1529261112 (4910s ago), job type=backup, previous check-in=259.3s
4909.716 (1) Long time past since expected resumption time: approx expected=1529261717.7, now=1529266022.3, diff=4304.6
4909.718 (1) [Warning] Your website is visited infrequently and UpdraftPlus is not getting the resources it hoped for; please read this page: https://updraftplus.com/faqs/why-am-i-getting-warnings-about-my-site-not-having-enough-visitors/
4909.720 (1) Scheduling a resumption (2) after 345 seconds (1529266367) in case this run gets aborted
4909.882 (1) Checking if we have a zip executable available
4909.900 (1) Zip engine: found/will use a binary zip: /usr/bin/zip
4910.024 (1) Creation of backups of directories: had begun; will resume
4910.028 (1) Beginning creation of dump of plugins (split every: 400 MB)
4910.047 (1) File exists (/home/sportsii902/public_html/wp-content/updraft/backup_2018-06-17-1445_Sportsii_75d09f5279bd-plugins.zip.tmp), but was apparently not modified within the last 30 seconds, so we assume that any previous run has now terminated (time_mod=1529261432, time_now=1529266022, diff=4590)
4912.149 (1) backup_2018-06-17-1445_Sportsii_75d09f5279bd-plugins.zip.tmp: Zip file already exists, with 8017 files
4919.281 (1) Total entities for the zip file: 1285 directories, 8241 files (0 skipped as non-modified), 114.8 MB
4919.285 (1) Zip: backup_2018-06-17-1445_Sportsii_75d09f5279bd-plugins.zip.tmp: 100 files added (on-disk size: 44219.1 KB)
4919.287 (1) Zip: backup_2018-06-17-1445_Sportsii_75d09f5279bd-plugins.zip.tmp: 200 files added (on-disk size: 44219.1 KB)
4919.289 (1) Zip: backup_2018-06-17-1445_Sportsii_75d09f5279bd-plugins.zip.tmp: 300 files added (on-disk size: 44219.1 KB)
4919.290 (1) Zip: backup_2018-06-17-1445_Sportsii_75d09f5279bd-plugins.zip.tmp: 400 files added (on-disk size: 44219.1 KB)
4919.292 (1) Zip: backup_2018-06-17-1445_Sportsii_75d09f5279bd-plugins.zip.tmp: 500 files added (on-disk size: 44219.1 KB)
4919.294 (1) Zip: backup_2018-06-17-1445_Sportsii_75d09f5279bd-plugins.zip.tmp: 600 files added (on-disk size: 44219.1 KB)
4919.296 (1) Zip: backup_2018-06-17-1445_Sportsii_75d09f5279bd-plugins.zip.tmp: 700 files added (on-disk size: 44219.1 KB)
4919.297 (1) Zip: backup_2018-06-17-1445_Sportsii_75d09f5279bd-plugins.zip.tmp: 800 files added (on-disk size: 44219.1 KB)
4919.299 (1) Zip: backup_2018-06-17-1445_Sportsii_75d09f5279bd-plugins.zip.tmp: 900 files added (on-disk size: 44219.1 KB)
4919.301 (1) Zip: backup_2018-06-17-1445_Sportsii_75d09f5279bd-plugins.zip.tmp: 1000 files added (on-disk size: 44219.1 KB)
4919.304 (1) Zip: backup_2018-06-17-1445_Sportsii_75d09f5279bd-plugins.zip.tmp: 1100 files added (on-disk size: 44219.1 KB)
4919.306 (1) Zip: backup_2018-06-17-1445_Sportsii_75d09f5279bd-plugins.zip.tmp: 1200 files added (on-disk size: 44219.1 KB)
4919.308 (1) Zip: backup_2018-06-17-1445_Sportsii_75d09f5279bd-plugins.zip.tmp: 1300 files added (on-disk size: 44219.1 KB)
4919.309 (1) Zip: backup_2018-06-17-1445_Sportsii_75d09f5279bd-plugins.zip.tmp: 1400 files added (on-disk size: 44219.1 KB)
4919.311 (1) Zip: backup_2018-06-17-1445_Sportsii_75d09f5279bd-plugins.zip.tmp: 1500 files added (on-disk size: 44219.1 KB)
4919.312 (1) Zip: backup_2018-06-17-1445_Sportsii_75d09f5279bd-plugins.zip.tmp: 1600 files added (on-disk size: 44219.1 KB)
4919.314 (1) Zip: backup_2018-06-17-1445_Sportsii_75d09f5279bd-plugins.zip.tmp: 1700 files added (on-disk size: 44219.1 KB)
4919.316 (1) Zip: backup_2018-06-17-1445_Sportsii_75d09f5279bd-plugins.zip.tmp: 1800 files added (on-disk size: 44219.1 KB)
4919.317 (1) Zip: backup_2018-06-17-1445_Sportsii_75d09f5279bd-plugins.zip.tmp: 1900 files added (on-disk size: 44219.1 KB)
4919.319 (1) Zip: backup_2018-06-17-1445_Sportsii_75d09f5279bd-plugins.zip.tmp: 2000 files added (on-disk size: 44219.1 KB)
4919.321 (1) Zip: backup_2018-06-17-1445_Sportsii_75d09f5279bd-plugins.zip.tmp: 2100 files added (on-disk size: 44219.1 KB)
4919.323 (1) Zip: backup_2018-06-17-1445_Sportsii_75d09f5279bd-plugins.zip.tmp: 2200 files added (on-disk size: 44219.1 KB)
4919.325 (1) Zip: backup_2018-06-17-1445_Sportsii_75d09f5279bd-plugins.zip.tmp: 2300 files added (on-disk size: 44219.1 KB)
4919.326 (1) Zip: backup_2018-06-17-1445_Sportsii_75d09f5279bd-plugins.zip.tmp: 2400 files added (on-disk size: 44219.1 KB)
4919.328 (1) Zip: backup_2018-06-17-1445_Sportsii_75d09f5279bd-plugins.zip.tmp: 2500 files added (on-disk size: 44219.1 KB)
4919.330 (1) Zip: backup_2018-06-17-1445_Sportsii_75d09f5279bd-plugins.zip.tmp: 2600 files added (on-disk size: 44219.1 KB)
4919.331 (1) Zip: backup_2018-06-17-1445_Sportsii_75d09f5279bd-plugins.zip.tmp: 2700 files added (on-disk size: 44219.1 KB)
4919.333 (1) Zip: backup_2018-06-17-1445_Sportsii_75d09f5279bd-plugins.zip.tmp: 2800 files added (on-disk size: 44219.1 KB)
4919.334 (1) Zip: backup_2018-06-17-1445_Sportsii_75d09f5279bd-plugins.zip.tmp: 2900 files added (on-disk size: 44219.1 KB)
4919.336 (1) Zip: backup_2018-06-17-1445_Sportsii_75d09f5279bd-plugins.zip.tmp: 3000 files added (on-disk size: 44219.1 KB)
4919.338 (1) Zip: backup_2018-06-17-1445_Sportsii_75d09f5279bd-plugins.zip.tmp: 3100 files added (on-disk size: 44219.1 KB)
4919.340 (1) Zip: backup_2018-06-17-1445_Sportsii_75d09f5279bd-plugins.zip.tmp: 3200 files added (on-disk size: 44219.1 KB)
4919.342 (1) Zip: backup_2018-06-17-1445_Sportsii_75d09f5279bd-plugins.zip.tmp: 3300 files added (on-disk size: 44219.1 KB)
4919.343 (1) Zip: backup_2018-06-17-1445_Sportsii_75d09f5279bd-plugins.zip.tmp: 3400 files added (on-disk size: 44219.1 KB)
4919.345 (1) Zip: backup_2018-06-17-1445_Sportsii_75d09f5279bd-plugins.zip.tmp: 3500 files added (on-disk size: 44219.1 KB)
4919.347 (1) Zip: backup_2018-06-17-1445_Sportsii_75d09f5279bd-plugins.zip.tmp: 3600 files added (on-disk size: 44219.1 KB)
4919.348 (1) Zip: backup_2018-06-17-1445_Sportsii_75d09f5279bd-plugins.zip.tmp: 3700 files added (on-disk size: 44219.1 KB)
4919.350 (1) Zip: backup_2018-06-17-1445_Sportsii_75d09f5279bd-plugins.zip.tmp: 3800 files added (on-disk size: 44219.1 KB)
4919.351 (1) Zip: backup_2018-06-17-1445_Sportsii_75d09f5279bd-plugins.zip.tmp: 3900 files added (on-disk size: 44219.1 KB)
4919.353 (1) Zip: backup_2018-06-17-1445_Sportsii_75d09f5279bd-plugins.zip.tmp: 4000 files added (on-disk size: 44219.1 KB)
4919.355 (1) Zip: backup_2018-06-17-1445_Sportsii_75d09f5279bd-plugins.zip.tmp: 4100 files added (on-disk size: 44219.1 KB)
4919.357 (1) Zip: backup_2018-06-17-1445_Sportsii_75d09f5279bd-plugins.zip.tmp: 4200 files added (on-disk size: 44219.1 KB)
4919.358 (1) Zip: backup_2018-06-17-1445_Sportsii_75d09f5279bd-plugins.zip.tmp: 4300 files added (on-disk size: 44219.1 KB)
4919.360 (1) Zip: backup_2018-06-17-1445_Sportsii_75d09f5279bd-plugins.zip.tmp: 4400 files added (on-disk size: 44219.1 KB)
4919.362 (1) Zip: backup_2018-06-17-1445_Sportsii_75d09f5279bd-plugins.zip.tmp: 4500 files added (on-disk size: 44219.1 KB)
4919.363 (1) Zip: backup_2018-06-17-1445_Sportsii_75d09f5279bd-plugins.zip.tmp: 4600 files added (on-disk size: 44219.1 KB)
4919.365 (1) Zip: backup_2018-06-17-1445_Sportsii_75d09f5279bd-plugins.zip.tmp: 4700 files added (on-disk size: 44219.1 KB)
4919.366 (1) Zip: backup_2018-06-17-1445_Sportsii_75d09f5279bd-plugins.zip.tmp: 4800 files added (on-disk size: 44219.1 KB)
4919.368 (1) Zip: backup_2018-06-17-1445_Sportsii_75d09f5279bd-plugins.zip.tmp: 4900 files added (on-disk size: 44219.1 KB)
4919.369 (1) Zip: backup_2018-06-17-1445_Sportsii_75d09f5279bd-plugins.zip.tmp: 5000 files added (on-disk size: 44219.1 KB)
4919.372 (1) Zip: backup_2018-06-17-1445_Sportsii_75d09f5279bd-plugins.zip.tmp: 5100 files added (on-disk size: 44219.1 KB)
4919.373 (1) Zip: backup_2018-06-17-1445_Sportsii_75d09f5279bd-plugins.zip.tmp: 5200 files added (on-disk size: 44219.1 KB)
4919.375 (1) Zip: backup_2018-06-17-1445_Sportsii_75d09f5279bd-plugins.zip.tmp: 5300 files added (on-disk size: 44219.1 KB)
4919.376 (1) Zip: backup_2018-06-17-1445_Sportsii_75d09f5279bd-plugins.zip.tmp: 5400 files added (on-disk size: 44219.1 KB)
4919.378 (1) Zip: backup_2018-06-17-1445_Sportsii_75d09f5279bd-plugins.zip.tmp: 5500 files added (on-disk size: 44219.1 KB)
4919.379 (1) Zip: backup_2018-06-17-1445_Sportsii_75d09f5279bd-plugins.zip.tmp: 5600 files added (on-disk size: 44219.1 KB)
4919.381 (1) Zip: backup_2018-06-17-1445_Sportsii_75d09f5279bd-plugins.zip.tmp: 5700 files added (on-disk size: 44219.1 KB)
4919.382 (1) Zip: backup_2018-06-17-1445_Sportsii_75d09f5279bd-plugins.zip.tmp: 5800 files added (on-disk size: 44219.1 KB)
4919.384 (1) Zip: backup_2018-06-17-1445_Sportsii_75d09f5279bd-plugins.zip.tmp: 5900 files added (on-disk size: 44219.1 KB)
4919.385 (1) Zip: backup_2018-06-17-1445_Sportsii_75d09f5279bd-plugins.zip.tmp: 6000 files added (on-disk size: 44219.1 KB)
4919.388 (1) Zip: backup_2018-06-17-1445_Sportsii_75d09f5279bd-plugins.zip.tmp: 6100 files added (on-disk size: 44219.1 KB)
4919.389 (1) Zip: backup_2018-06-17-1445_Sportsii_75d09f5279bd-plugins.zip.tmp: 6200 files added (on-disk size: 44219.1 KB)
4919.391 (1) Zip: backup_2018-06-17-1445_Sportsii_75d09f5279bd-plugins.zip.tmp: 6300 files added (on-disk size: 44219.1 KB)
4919.392 (1) Zip: backup_2018-06-17-1445_Sportsii_75d09f5279bd-plugins.zip.tmp: 6400 files added (on-disk size: 44219.1 KB)
4919.394 (1) Zip: backup_2018-06-17-1445_Sportsii_75d09f5279bd-plugins.zip.tmp: 6500 files added (on-disk size: 44219.1 KB)
4919.395 (1) Zip: backup_2018-06-17-1445_Sportsii_75d09f5279bd-plugins.zip.tmp: 6600 files added (on-disk size: 44219.1 KB)
4919.397 (1) Zip: backup_2018-06-17-1445_Sportsii_75d09f5279bd-plugins.zip.tmp: 6700 files added (on-disk size: 44219.1 KB)
4919.398 (1) Zip: backup_2018-06-17-1445_Sportsii_75d09f5279bd-plugins.zip.tmp: 6800 files added (on-disk size: 44219.1 KB)
4919.400 (1) Zip: backup_2018-06-17-1445_Sportsii_75d09f5279bd-plugins.zip.tmp: 6900 files added (on-disk size: 44219.1 KB)
4919.401 (1) Zip: backup_2018-06-17-1445_Sportsii_75d09f5279bd-plugins.zip.tmp: 7000 files added (on-disk size: 44219.1 KB)
4919.404 (1) Zip: backup_2018-06-17-1445_Sportsii_75d09f5279bd-plugins.zip.tmp: 7100 files added (on-disk size: 44219.1 KB)
4919.406 (1) Zip: backup_2018-06-17-1445_Sportsii_75d09f5279bd-plugins.zip.tmp: 7200 files added (on-disk size: 44219.1 KB)
4919.407 (1) Zip: backup_2018-06-17-1445_Sportsii_75d09f5279bd-plugins.zip.tmp: 7300 files added (on-disk size: 44219.1 KB)
4919.409 (1) Zip: backup_2018-06-17-1445_Sportsii_75d09f5279bd-plugins.zip.tmp: 7400 files added (on-disk size: 44219.1 KB)
4919.410 (1) Zip: backup_2018-06-17-1445_Sportsii_75d09f5279bd-plugins.zip.tmp: 7500 files added (on-disk size: 44219.1 KB)
4919.412 (1) Zip: backup_2018-06-17-1445_Sportsii_75d09f5279bd-plugins.zip.tmp: 7600 files added (on-disk size: 44219.1 KB)
4919.413 (1) Zip: backup_2018-06-17-1445_Sportsii_75d09f5279bd-plugins.zip.tmp: 7700 files added (on-disk size: 44219.1 KB)
4919.415 (1) Zip: backup_2018-06-17-1445_Sportsii_75d09f5279bd-plugins.zip.tmp: 7800 files added (on-disk size: 44219.1 KB)
4919.416 (1) Zip: backup_2018-06-17-1445_Sportsii_75d09f5279bd-plugins.zip.tmp: 7900 files added (on-disk size: 44219.1 KB)
4919.418 (1) Zip: backup_2018-06-17-1445_Sportsii_75d09f5279bd-plugins.zip.tmp: 8000 files added (on-disk size: 44219.1 KB)
4919.422 (1) Zip: backup_2018-06-17-1445_Sportsii_75d09f5279bd-plugins.zip.tmp: 8100 files added (on-disk size: 44219.1 KB)
4919.426 (1) Zip: backup_2018-06-17-1445_Sportsii_75d09f5279bd-plugins.zip.tmp: 8200 files added (on-disk size: 44219.1 KB)
4998.460 (1) Created plugins zip (0) - 45244.6 KB in 88.2 s (512.8 KB/s) (sha1: c0b1d95975845909dd12b0b926d9317c83e10893, sha256: 587606e11a0ea40cd04fd23633e34956189460c6379b7fce9d7f0cc4e40408cb)
4998.463 (1) Beginning creation of dump of themes (split every: 400 MB)
5001.985 (1) Total entities for the zip file: 296 directories, 1414 files (0 skipped as non-modified), 29.2 MB
5001.987 (1) Adding batch to zip file (UpdraftPlus_BinZip): over 2.0 seconds have passed since the last write (0 MB, 1 (1) files added so far); re-opening (prior size: 0 KB)
5002.022 (1) backup_2018-06-17-1445_Sportsii_75d09f5279bd-themes.zip.tmp: size is now: 0.10 MB
5002.030 (1) Zip: backup_2018-06-17-1445_Sportsii_75d09f5279bd-themes.zip.tmp: 100 files added (on-disk size: 71.3 KB)
5002.035 (1) Zip: backup_2018-06-17-1445_Sportsii_75d09f5279bd-themes.zip.tmp: 200 files added (on-disk size: 71.3 KB)
5002.039 (1) Zip: backup_2018-06-17-1445_Sportsii_75d09f5279bd-themes.zip.tmp: 300 files added (on-disk size: 71.3 KB)
5002.043 (1) Zip: backup_2018-06-17-1445_Sportsii_75d09f5279bd-themes.zip.tmp: 400 files added (on-disk size: 71.3 KB)
5002.048 (1) Zip: backup_2018-06-17-1445_Sportsii_75d09f5279bd-themes.zip.tmp: 500 files added (on-disk size: 71.3 KB)
5002.049 (1) Adding batch to zip file (UpdraftPlus_BinZip): over 500 files added on this batch (7.3 MB, 1414 files batched, 501 (502) added so far); re-opening (prior size: 71.3 KB)
5010.887 (1) backup_2018-06-17-1445_Sportsii_75d09f5279bd-themes.zip.tmp: size is now: 3.80 MB
5010.895 (1) Zip: backup_2018-06-17-1445_Sportsii_75d09f5279bd-themes.zip.tmp: 600 files added (on-disk size: 3863.1 KB)
5010.900 (1) Zip: backup_2018-06-17-1445_Sportsii_75d09f5279bd-themes.zip.tmp: 700 files added (on-disk size: 3863.1 KB)
5010.904 (1) Zip: backup_2018-06-17-1445_Sportsii_75d09f5279bd-themes.zip.tmp: 800 files added (on-disk size: 3863.1 KB)
5010.909 (1) Zip: backup_2018-06-17-1445_Sportsii_75d09f5279bd-themes.zip.tmp: 900 files added (on-disk size: 3863.1 KB)
5010.913 (1) Zip: backup_2018-06-17-1445_Sportsii_75d09f5279bd-themes.zip.tmp: 1000 files added (on-disk size: 3863.1 KB)
5010.914 (1) Adding batch to zip file (UpdraftPlus_BinZip): over 500 files added on this batch (5.9 MB, 1414 files batched, 501 (1003) added so far); re-opening (prior size: 3863.1 KB)
5029.679 (1) backup_2018-06-17-1445_Sportsii_75d09f5279bd-themes.zip.tmp: size is now: 6.00 MB
5029.686 (1) Zip: backup_2018-06-17-1445_Sportsii_75d09f5279bd-themes.zip.tmp: 1100 files added (on-disk size: 6187.8 KB)
5029.690 (1) Zip: backup_2018-06-17-1445_Sportsii_75d09f5279bd-themes.zip.tmp: 1200 files added (on-disk size: 6187.8 KB)
5029.694 (1) Zip: backup_2018-06-17-1445_Sportsii_75d09f5279bd-themes.zip.tmp: 1300 files added (on-disk size: 6187.8 KB)
5029.698 (1) Zip: backup_2018-06-17-1445_Sportsii_75d09f5279bd-themes.zip.tmp: 1400 files added (on-disk size: 6187.8 KB)
5055.091 (1) backup_2018-06-17-1445_Sportsii_75d09f5279bd-themes.zip.tmp: size is now: 17.50 MB
5055.350 (1) Created themes zip (0) - 17901.9 KB in 56.7 s (315.6 KB/s) (sha1: 940c9a612421d865930b6ef8418edbaa98a56c03, sha256: 27074f9b31b69f1f4fb0b777ac9ba72bc92358fe735841347186fb807520c52c)
5055.354 (1) Exclusion option setting (uploads): backup*,*backups,backwpup*,wp-clone,snapshots
5055.355 (1) Looking for candidates to back up in: /home/sportsii902/public_html/wp-content/uploads
5055.356 (1) finding files: flags: adding to list (1)
5055.357 (1) finding files: group-avatars: adding to list (2)
5055.357 (1) finding files: 2017: adding to list (3)
5055.358 (1) finding files: avatars: adding to list (4)
5055.359 (1) finding files: buddypress: adding to list (5)
5055.360 (1) finding files: event-manager-uploads: adding to list (6)
5055.361 (1) finding files: 2018: adding to list (7)
5055.362 (1) finding files: bpfb: adding to list (8)
5055.363 (1) finding files: cache: adding to list (9)
5055.363 (1) finding files: mc4wp-debug-log.php: adding to list (10)
5055.364 (1) Beginning creation of dump of uploads (split every: 400 MB)
5055.797 (1) Total entities for the zip file: 87 directories, 352 files (0 skipped as non-modified), 37.7 MB
5055.802 (1) Zip: backup_2018-06-17-1445_Sportsii_75d09f5279bd-uploads.zip.tmp: 100 files added (on-disk size: 0 KB)
5055.807 (1) Zip: backup_2018-06-17-1445_Sportsii_75d09f5279bd-uploads.zip.tmp: 200 files added (on-disk size: 0 KB)
5055.811 (1) Adding batch to zip file (UpdraftPlus_BinZip): over 25 MB added on this batch (25.1 MB, 352 files batched, 288 (288) added so far); re-opening (prior size: 0 KB)
5116.881 (1) backup_2018-06-17-1445_Sportsii_75d09f5279bd-uploads.zip.tmp: size is now: 25.20 MB
5116.885 (1) A useful amount of data was added after this amount of zip processing: 61.7 s (normalised: 61.4 s, rate: 417.1 KB/s)
5116.888 (1) Performance is good - will increase the amount of data we attempt to batch (time=61.697742938995, normalised_time=61.375702187178, max_time=259, data points known=1, old_max_bytes=26214400, new_max_bytes=66373460)
5116.890 (1) Zip: backup_2018-06-17-1445_Sportsii_75d09f5279bd-uploads.zip.tmp: 300 files added (on-disk size: 25810.8 KB)
5146.111 (1) backup_2018-06-17-1445_Sportsii_75d09f5279bd-uploads.zip.tmp: size is now: 37.60 MB
5146.647 (1) Created uploads zip (0) - 38509.4 KB in 91.1 s (422.7 KB/s) (sha1: 634ea79feb3a3d9870f1eeaf57de8e12f8df07bc, sha256: c5aab407d91ae74da82572e99d7fcccf47d23b09fb15b2bcf2c5d1b66d6603e2)
5146.650 (1) Beginning backup of other directories found in the content directory (index: 0)
5146.651 (1) Exclusion option setting (others): upgrade,cache,updraft,backup*,*backups,mysql.sql,debug.log
5146.652 (1) Looking for candidates to back up in: /home/sportsii902/public_html/wp-content
5146.653 (1) finding files: languages: adding to list (1)
5146.654 (1) finding files: themes: skipping: this is the themes directory
5146.655 (1) finding files: uploads: skipping: this is the uploads directory
5146.656 (1) finding files: index.php: adding to list (2)
5146.657 (1) finding files: plugins: skipping: this is the plugins directory
5146.657 (1) finding files: upgrade: skipping: excluded by options
5146.658 (1) finding files: ai1wm-backups: skipping: excluded by options (glob)
5146.659 (1) finding files: updraft: skipping: this is the updraft directory
5146.835 (1) Total entities for the zip file: 3 directories, 97 files (0 skipped as non-modified), 9.1 MB
5188.966 (1) backup_2018-06-17-1445_Sportsii_75d09f5279bd-others.zip.tmp: size is now: 2.40 MB
5189.006 (1) Created others zip (0) - 2447.5 KB in 42.2 s (58 KB/s) (sha1: 255b16c4406311088c96fc5eb596d5bade8756e4, sha256: f622b1638b9838a2c79cede19cb4db7f638c12e3793f23fdd24fad26cb6aff25)
5189.012 (1) Saving backup status to database (elements: 8)
5189.016 (1) Resuming creation of database dump (WordPress DB)
5189.018 (1) Testing: /usr/bin/mysqldump
5189.098 (1) Binary mysqldump: error (code: 2)
5189.112 (1) Table wp_options: Total expected rows (approximate): 1733
5189.296 (1) Table wp_options: Total rows added: 1995 in 0.18 seconds
5189.298 (1) Table wp_options: finishing file (backup_2018-06-17-1445_Sportsii_75d09f5279bd-db-table-wp_options.table.gz - 459.5 KB)
5189.303 (1) Table wp_users: Total expected rows (approximate): 10
5189.306 (1) Table wp_users: Total rows added: 22 in 0.00 seconds
5189.307 (1) Table wp_users: finishing file (backup_2018-06-17-1445_Sportsii_75d09f5279bd-db-table-wp_users.table.gz - 2 KB)
5189.311 (1) Table wp_usermeta: Total expected rows (approximate): 329
5189.322 (1) Table wp_usermeta: Total rows added: 462 in 0.01 seconds
5189.323 (1) Table wp_usermeta: finishing file (backup_2018-06-17-1445_Sportsii_75d09f5279bd-db-table-wp_usermeta.table.gz - 8.1 KB)
5189.327 (1) Table wp_commentmeta: Total expected rows (approximate): 0
5189.329 (1) Table wp_commentmeta: Total rows added: 0 in 0.00 seconds
5189.330 (1) Table wp_commentmeta: finishing file (backup_2018-06-17-1445_Sportsii_75d09f5279bd-db-table-wp_commentmeta.table.gz - 0.4 KB)
5189.335 (1) Table wp_comments: Total expected rows (approximate): 0
5189.337 (1) Table wp_comments: Total rows added: 0 in 0.00 seconds
5189.338 (1) Table wp_comments: finishing file (backup_2018-06-17-1445_Sportsii_75d09f5279bd-db-table-wp_comments.table.gz - 0.5 KB)
5189.342 (1) Table wp_links: Total expected rows (approximate): 0
5189.344 (1) Table wp_links: Total rows added: 0 in 0.00 seconds
5189.345 (1) Table wp_links: finishing file (backup_2018-06-17-1445_Sportsii_75d09f5279bd-db-table-wp_links.table.gz - 0.4 KB)
5189.350 (1) Table wp_postmeta: Total expected rows (approximate): 2599
5189.406 (1) Table wp_postmeta: Total rows added: 2392 in 0.06 seconds
5189.407 (1) Table wp_postmeta: finishing file (backup_2018-06-17-1445_Sportsii_75d09f5279bd-db-table-wp_postmeta.table.gz - 26.7 KB)
5189.412 (1) Table wp_posts: Total expected rows (approximate): 673
5189.526 (1) Table wp_posts: Total rows added: 562 in 0.11 seconds
5189.528 (1) Table wp_posts: finishing file (backup_2018-06-17-1445_Sportsii_75d09f5279bd-db-table-wp_posts.table.gz - 221.9 KB)
5189.532 (1) Table wp_signups: Total expected rows (approximate): 15
5189.537 (1) Table wp_signups: Total rows added: 33 in 0.00 seconds
5189.538 (1) Table wp_signups: finishing file (backup_2018-06-17-1445_Sportsii_75d09f5279bd-db-table-wp_signups.table.gz - 6.2 KB)
5189.542 (1) Table wp_term_relationships: Total expected rows (approximate): 315
5189.548 (1) Table wp_term_relationships: Total rows added: 383 in 0.01 seconds
5189.550 (1) Table wp_term_relationships: finishing file (backup_2018-06-17-1445_Sportsii_75d09f5279bd-db-table-wp_term_relationships.table.gz - 1.5 KB)
5189.554 (1) Table wp_term_taxonomy: Total expected rows (approximate): 96
5189.559 (1) Table wp_term_taxonomy: Total rows added: 106 in 0.00 seconds
5189.560 (1) Table wp_term_taxonomy: finishing file (backup_2018-06-17-1445_Sportsii_75d09f5279bd-db-table-wp_term_taxonomy.table.gz - 1.7 KB)
5189.565 (1) Table wp_termmeta: Total expected rows (approximate): 0
5189.572 (1) Table wp_termmeta: Total rows added: 0 in 0.00 seconds
5189.573 (1) Table wp_termmeta: finishing file (backup_2018-06-17-1445_Sportsii_75d09f5279bd-db-table-wp_termmeta.table.gz - 0.4 KB)
5189.577 (1) Table wp_terms: Total expected rows (approximate): 95
5189.581 (1) Table wp_terms: Total rows added: 106 in 0.00 seconds
5189.582 (1) Table wp_terms: finishing file (backup_2018-06-17-1445_Sportsii_75d09f5279bd-db-table-wp_terms.table.gz - 1.9 KB)
5189.586 (1) Table wp_booking: Total expected rows (approximate): 1
5189.589 (1) Table wp_booking: Total rows added: 1 in 0.00 seconds
5189.590 (1) Table wp_booking: finishing file (backup_2018-06-17-1445_Sportsii_75d09f5279bd-db-table-wp_booking.table.gz - 0.6 KB)
5189.595 (1) Table wp_bookingdates: Total expected rows (approximate): 3
5189.597 (1) Table wp_bookingdates: Total rows added: 3 in 0.00 seconds
5189.598 (1) Table wp_bookingdates: finishing file (backup_2018-06-17-1445_Sportsii_75d09f5279bd-db-table-wp_bookingdates.table.gz - 0.4 KB)
5189.603 (1) Table wp_bp_activity: Total expected rows (approximate): 61
5189.610 (1) Table wp_bp_activity: Total rows added: 73 in 0.01 seconds
5189.611 (1) Table wp_bp_activity: finishing file (backup_2018-06-17-1445_Sportsii_75d09f5279bd-db-table-wp_bp_activity.table.gz - 4.8 KB)
5189.616 (1) Table wp_bp_activity_meta: Total expected rows (approximate): 19
5189.618 (1) Table wp_bp_activity_meta: Total rows added: 22 in 0.00 seconds
5189.619 (1) Table wp_bp_activity_meta: finishing file (backup_2018-06-17-1445_Sportsii_75d09f5279bd-db-table-wp_bp_activity_meta.table.gz - 0.5 KB)
5189.623 (1) Table wp_bp_friends: Total expected rows (approximate): 18
5189.626 (1) Table wp_bp_friends: Total rows added: 20 in 0.00 seconds
5189.627 (1) Table wp_bp_friends: finishing file (backup_2018-06-17-1445_Sportsii_75d09f5279bd-db-table-wp_bp_friends.table.gz - 0.7 KB)
5189.631 (1) Table wp_bp_groups: Total expected rows (approximate): 2
5189.634 (1) Table wp_bp_groups: Total rows added: 2 in 0.00 seconds
5189.635 (1) Table wp_bp_groups: finishing file (backup_2018-06-17-1445_Sportsii_75d09f5279bd-db-table-wp_bp_groups.table.gz - 0.9 KB)
5189.639 (1) Table wp_bp_groups_groupmeta: Total expected rows (approximate): 5
5189.641 (1) Table wp_bp_groups_groupmeta: Total rows added: 6 in 0.00 seconds
5189.642 (1) Table wp_bp_groups_groupmeta: finishing file (backup_2018-06-17-1445_Sportsii_75d09f5279bd-db-table-wp_bp_groups_groupmeta.table.gz - 0.5 KB)
5189.647 (1) Table wp_bp_groups_members: Total expected rows (approximate): 2
5189.649 (1) Table wp_bp_groups_members: Total rows added: 3 in 0.00 seconds
5189.650 (1) Table wp_bp_groups_members: finishing file (backup_2018-06-17-1445_Sportsii_75d09f5279bd-db-table-wp_bp_groups_members.table.gz - 0.6 KB)
5189.655 (1) Table wp_bp_messages_messages: Total expected rows (approximate): 28
5189.658 (1) Table wp_bp_messages_messages: Total rows added: 33 in 0.00 seconds
5189.659 (1) Table wp_bp_messages_messages: finishing file (backup_2018-06-17-1445_Sportsii_75d09f5279bd-db-table-wp_bp_messages_messages.table.gz - 2.4 KB)
5189.663 (1) Table wp_bp_messages_meta: Total expected rows (approximate): 0
5189.665 (1) Table wp_bp_messages_meta: Total rows added: 0 in 0.00 seconds
5189.666 (1) Table wp_bp_messages_meta: finishing file (backup_2018-06-17-1445_Sportsii_75d09f5279bd-db-table-wp_bp_messages_meta.table.gz - 0.3 KB)
5189.671 (1) Table wp_bp_messages_notices: Total expected rows (approximate): 0
5189.674 (1) Table wp_bp_messages_notices: Total rows added: 0 in 0.00 seconds
5189.675 (1) Table wp_bp_messages_notices: finishing file (backup_2018-06-17-1445_Sportsii_75d09f5279bd-db-table-wp_bp_messages_notices.table.gz - 0.4 KB)
5189.679 (1) Table wp_bp_messages_recipients: Total expected rows (approximate): 32
5189.682 (1) Table wp_bp_messages_recipients: Total rows added: 34 in 0.00 seconds
5189.683 (1) Table wp_bp_messages_recipients: finishing file (backup_2018-06-17-1445_Sportsii_75d09f5279bd-db-table-wp_bp_messages_recipients.table.gz - 0.6 KB)
5189.688 (1) Table wp_bp_notifications: Total expected rows (approximate): 44
5189.692 (1) Table wp_bp_notifications: Total rows added: 57 in 0.00 seconds
5189.693 (1) Table wp_bp_notifications: finishing file (backup_2018-06-17-1445_Sportsii_75d09f5279bd-db-table-wp_bp_notifications.table.gz - 1.4 KB)
5189.698 (1) Table wp_bp_notifications_meta: Total expected rows (approximate): 0
5189.700 (1) Table wp_bp_notifications_meta: Total rows added: 0 in 0.00 seconds
5189.701 (1) Table wp_bp_notifications_meta: finishing file (backup_2018-06-17-1445_Sportsii_75d09f5279bd-db-table-wp_bp_notifications_meta.table.gz - 0.4 KB)
5189.705 (1) Table wp_bp_xprofile_data: Total expected rows (approximate): 95
5189.710 (1) Table wp_bp_xprofile_data: Total rows added: 162 in 0.00 seconds
5189.712 (1) Table wp_bp_xprofile_data: finishing file (backup_2018-06-17-1445_Sportsii_75d09f5279bd-db-table-wp_bp_xprofile_data.table.gz - 4 KB)
5189.716 (1) Table wp_bp_xprofile_fields: Total expected rows (approximate): 66
5189.721 (1) Table wp_bp_xprofile_fields: Total rows added: 66 in 0.00 seconds
5189.722 (1) Table wp_bp_xprofile_fields: finishing file (backup_2018-06-17-1445_Sportsii_75d09f5279bd-db-table-wp_bp_xprofile_fields.table.gz - 1.5 KB)
5189.726 (1) Table wp_bp_xprofile_groups: Total expected rows (approximate): 0
5189.728 (1) Table wp_bp_xprofile_groups: Total rows added: 2 in 0.00 seconds
5189.729 (1) Table wp_bp_xprofile_groups: finishing file (backup_2018-06-17-1445_Sportsii_75d09f5279bd-db-table-wp_bp_xprofile_groups.table.gz - 0.4 KB)
5189.733 (1) Table wp_bp_xprofile_meta: Total expected rows (approximate): 48
5189.737 (1) Table wp_bp_xprofile_meta: Total rows added: 50 in 0.00 seconds
5189.738 (1) Table wp_bp_xprofile_meta: finishing file (backup_2018-06-17-1445_Sportsii_75d09f5279bd-db-table-wp_bp_xprofile_meta.table.gz - 0.8 KB)
5189.742 (1) Table wp_em_bookings: Total expected rows (approximate): 0
5189.744 (1) Table wp_em_bookings: Total rows added: 0 in 0.00 seconds
5189.745 (1) Table wp_em_bookings: finishing file (backup_2018-06-17-1445_Sportsii_75d09f5279bd-db-table-wp_em_bookings.table.gz - 0.5 KB)
5189.749 (1) Table wp_em_events: Total expected rows (approximate): 152
5189.766 (1) Table wp_em_events: Total rows added: 152 in 0.02 seconds
5189.768 (1) Table wp_em_events: finishing file (backup_2018-06-17-1445_Sportsii_75d09f5279bd-db-table-wp_em_events.table.gz - 7.1 KB)
5189.772 (1) Table wp_em_locations: Total expected rows (approximate): 16
5189.776 (1) Table wp_em_locations: Total rows added: 16 in 0.00 seconds
5189.777 (1) Table wp_em_locations: finishing file (backup_2018-06-17-1445_Sportsii_75d09f5279bd-db-table-wp_em_locations.table.gz - 1.2 KB)
5189.781 (1) Table wp_em_meta: Total expected rows (approximate): 1
5189.783 (1) Table wp_em_meta: Total rows added: 1 in 0.00 seconds
5189.784 (1) Table wp_em_meta: finishing file (backup_2018-06-17-1445_Sportsii_75d09f5279bd-db-table-wp_em_meta.table.gz - 0.5 KB)
5189.788 (1) Table wp_em_tickets: Total expected rows (approximate): 33
5189.791 (1) Table wp_em_tickets: Total rows added: 33 in 0.00 seconds
5189.792 (1) Table wp_em_tickets: finishing file (backup_2018-06-17-1445_Sportsii_75d09f5279bd-db-table-wp_em_tickets.table.gz - 0.7 KB)
5189.797 (1) Table wp_em_tickets_bookings: Total expected rows (approximate): 0
5189.799 (1) Table wp_em_tickets_bookings: Total rows added: 0 in 0.00 seconds
5189.800 (1) Table wp_em_tickets_bookings: finishing file (backup_2018-06-17-1445_Sportsii_75d09f5279bd-db-table-wp_em_tickets_bookings.table.gz - 0.4 KB)
5189.806 (1) Table wp_icl_content_status: Total expected rows (approximate): 0
5189.808 (1) Table wp_icl_content_status: Total rows added: 0 in 0.00 seconds
5189.809 (1) Table wp_icl_content_status: finishing file (backup_2018-06-17-1445_Sportsii_75d09f5279bd-db-table-wp_icl_content_status.table.gz - 0.3 KB)
5189.814 (1) Table wp_icl_core_status: Total expected rows (approximate): 0
5189.816 (1) Table wp_icl_core_status: Total rows added: 0 in 0.00 seconds
5189.818 (1) Table wp_icl_core_status: finishing file (backup_2018-06-17-1445_Sportsii_75d09f5279bd-db-table-wp_icl_core_status.table.gz - 0.3 KB)
5189.822 (1) Table wp_icl_flags: Total expected rows (approximate): 63
5189.826 (1) Table wp_icl_flags: Total rows added: 63 in 0.00 seconds
5189.827 (1) Table wp_icl_flags: finishing file (backup_2018-06-17-1445_Sportsii_75d09f5279bd-db-table-wp_icl_flags.table.gz - 0.9 KB)
5189.831 (1) Table wp_icl_languages: Total expected rows (approximate): 63
5189.835 (1) Table wp_icl_languages: Total rows added: 63 in 0.00 seconds
5189.837 (1) Table wp_icl_languages: finishing file (backup_2018-06-17-1445_Sportsii_75d09f5279bd-db-table-wp_icl_languages.table.gz - 1.5 KB)
5189.841 (1) Table wp_icl_languages_translations: Total expected rows (approximate): 3969
5189.924 (1) Table wp_icl_languages_translations: Total rows added: 3969 in 0.08 seconds
5189.926 (1) Table wp_icl_languages_translations: finishing file (backup_2018-06-17-1445_Sportsii_75d09f5279bd-db-table-wp_icl_languages_translations.table.gz - 33.1 KB)
5189.930 (1) Table wp_icl_locale_map: Total expected rows (approximate): 2
5189.932 (1) Table wp_icl_locale_map: Total rows added: 2 in 0.00 seconds
5189.933 (1) Table wp_icl_locale_map: finishing file (backup_2018-06-17-1445_Sportsii_75d09f5279bd-db-table-wp_icl_locale_map.table.gz - 0.3 KB)
5189.937 (1) Table wp_icl_message_status: Total expected rows (approximate): 0
5189.939 (1) Table wp_icl_message_status: Total rows added: 0 in 0.00 seconds
5189.940 (1) Table wp_icl_message_status: finishing file (backup_2018-06-17-1445_Sportsii_75d09f5279bd-db-table-wp_icl_message_status.table.gz - 0.4 KB)
5189.944 (1) Table wp_icl_node: Total expected rows (approximate): 0
5189.946 (1) Table wp_icl_node: Total rows added: 0 in 0.00 seconds
5189.947 (1) Table wp_icl_node: finishing file (backup_2018-06-17-1445_Sportsii_75d09f5279bd-db-table-wp_icl_node.table.gz - 0.3 KB)
5189.952 (1) Table wp_icl_reminders: Total expected rows (approximate): 0
5189.954 (1) Table wp_icl_reminders: Total rows added: 0 in 0.00 seconds
5189.955 (1) Table wp_icl_reminders: finishing file (backup_2018-06-17-1445_Sportsii_75d09f5279bd-db-table-wp_icl_reminders.table.gz - 0.3 KB)
5189.959 (1) Table wp_icl_string_positions: Total expected rows (approximate): 0
5189.961 (1) Table wp_icl_string_positions: Total rows added: 0 in 0.00 seconds
5189.962 (1) Table wp_icl_string_positions: finishing file (backup_2018-06-17-1445_Sportsii_75d09f5279bd-db-table-wp_icl_string_positions.table.gz - 0.3 KB)
5189.967 (1) Table wp_icl_string_status: Total expected rows (approximate): 0
5189.969 (1) Table wp_icl_string_status: Total rows added: 0 in 0.00 seconds
5189.970 (1) Table wp_icl_string_status: finishing file (backup_2018-06-17-1445_Sportsii_75d09f5279bd-db-table-wp_icl_string_status.table.gz - 0.4 KB)
5189.974 (1) Table wp_icl_string_translations: Total expected rows (approximate): 0
5189.976 (1) Table wp_icl_string_translations: Total rows added: 0 in 0.00 seconds
5189.977 (1) Table wp_icl_string_translations: finishing file (backup_2018-06-17-1445_Sportsii_75d09f5279bd-db-table-wp_icl_string_translations.table.gz - 0.4 KB)
5189.982 (1) Table wp_icl_strings: Total expected rows (approximate): 0
5189.984 (1) Table wp_icl_strings: Total rows added: 0 in 0.00 seconds
5189.985 (1) Table wp_icl_strings: finishing file (backup_2018-06-17-1445_Sportsii_75d09f5279bd-db-table-wp_icl_strings.table.gz - 0.5 KB)
5189.989 (1) Table wp_icl_translate: Total expected rows (approximate): 0
5189.991 (1) Table wp_icl_translate: Total rows added: 0 in 0.00 seconds
5189.993 (1) Table wp_icl_translate: finishing file (backup_2018-06-17-1445_Sportsii_75d09f5279bd-db-table-wp_icl_translate.table.gz - 0.4 KB)
5189.997 (1) Table wp_icl_translate_job: Total expected rows (approximate): 0
5189.999 (1) Table wp_icl_translate_job: Total rows added: 0 in 0.00 seconds
5190.000 (1) Table wp_icl_translate_job: finishing file (backup_2018-06-17-1445_Sportsii_75d09f5279bd-db-table-wp_icl_translate_job.table.gz - 0.4 KB)
5190.004 (1) Table wp_icl_translation_batches: Total expected rows (approximate): 0
5190.006 (1) Table wp_icl_translation_batches: Total rows added: 0 in 0.00 seconds
5190.007 (1) Table wp_icl_translation_batches: finishing file (backup_2018-06-17-1445_Sportsii_75d09f5279bd-db-table-wp_icl_translation_batches.table.gz - 0.3 KB)
5190.011 (1) Table wp_icl_translation_status: Total expected rows (approximate): 0
5190.013 (1) Table wp_icl_translation_status: Total rows added: 0 in 0.00 seconds
5190.014 (1) Table wp_icl_translation_status: finishing file (backup_2018-06-17-1445_Sportsii_75d09f5279bd-db-table-wp_icl_translation_status.table.gz - 0.5 KB)
5190.018 (1) Table wp_icl_translations: Total expected rows (approximate): 445
5190.028 (1) Table wp_icl_translations: Total rows added: 445 in 0.01 seconds
5190.030 (1) Table wp_icl_translations: finishing file (backup_2018-06-17-1445_Sportsii_75d09f5279bd-db-table-wp_icl_translations.table.gz - 4.3 KB)
5190.034 (1) Table wp_places_locator: Total expected rows (approximate): 0
5190.036 (1) Table wp_places_locator: Total rows added: 0 in 0.00 seconds
5190.037 (1) Table wp_places_locator: finishing file (backup_2018-06-17-1445_Sportsii_75d09f5279bd-db-table-wp_places_locator.table.gz - 0.5 KB)
5190.041 (1) Table wp_wsluserscontacts: Total expected rows (approximate): 0
5190.044 (1) Table wp_wsluserscontacts: Total rows added: 0 in 0.00 seconds
5190.045 (1) Table wp_wsluserscontacts: finishing file (backup_2018-06-17-1445_Sportsii_75d09f5279bd-db-table-wp_wsluserscontacts.table.gz - 0.3 KB)
5190.049 (1) Table wp_wslusersprofiles: Total expected rows (approximate): 0
5190.051 (1) Table wp_wslusersprofiles: Total rows added: 0 in 0.00 seconds
5190.052 (1) Table wp_wslusersprofiles: finishing file (backup_2018-06-17-1445_Sportsii_75d09f5279bd-db-table-wp_wslusersprofiles.table.gz - 0.5 KB)
5190.054 (1) Skipping table (lacks our prefix (wp_)): wppl_friends_locator
5190.056 (1) backup_2018-06-17-1445_Sportsii_75d09f5279bd-db-table-wp_options.table.gz (1/59): adding to final database dump
5190.188 (1) backup_2018-06-17-1445_Sportsii_75d09f5279bd-db-table-wp_users.table.gz (2/59): adding to final database dump
5190.191 (1) backup_2018-06-17-1445_Sportsii_75d09f5279bd-db-table-wp_usermeta.table.gz (3/59): adding to final database dump
5190.197 (1) backup_2018-06-17-1445_Sportsii_75d09f5279bd-db-table-wp_commentmeta.table.gz (4/59): adding to final database dump
5190.199 (1) backup_2018-06-17-1445_Sportsii_75d09f5279bd-db-table-wp_comments.table.gz (5/59): adding to final database dump
5190.200 (1) backup_2018-06-17-1445_Sportsii_75d09f5279bd-db-table-wp_links.table.gz (6/59): adding to final database dump
5190.201 (1) backup_2018-06-17-1445_Sportsii_75d09f5279bd-db-table-wp_postmeta.table.gz (7/59): adding to final database dump
5190.225 (1) backup_2018-06-17-1445_Sportsii_75d09f5279bd-db-table-wp_posts.table.gz (8/59): adding to final database dump
5190.294 (1) backup_2018-06-17-1445_Sportsii_75d09f5279bd-db-table-wp_signups.table.gz (9/59): adding to final database dump
5190.297 (1) backup_2018-06-17-1445_Sportsii_75d09f5279bd-db-table-wp_term_relationships.table.gz (10/59): adding to final database dump
5190.300 (1) backup_2018-06-17-1445_Sportsii_75d09f5279bd-db-table-wp_term_taxonomy.table.gz (11/59): adding to final database dump
5190.302 (1) backup_2018-06-17-1445_Sportsii_75d09f5279bd-db-table-wp_termmeta.table.gz (12/59): adding to final database dump
5190.303 (1) backup_2018-06-17-1445_Sportsii_75d09f5279bd-db-table-wp_terms.table.gz (13/59): adding to final database dump
5190.305 (1) backup_2018-06-17-1445_Sportsii_75d09f5279bd-db-table-wp_booking.table.gz (14/59): adding to final database dump
5190.306 (1) backup_2018-06-17-1445_Sportsii_75d09f5279bd-db-table-wp_bookingdates.table.gz (15/59): adding to final database dump
5190.308 (1) backup_2018-06-17-1445_Sportsii_75d09f5279bd-db-table-wp_bp_activity.table.gz (16/59): adding to final database dump
5190.311 (1) backup_2018-06-17-1445_Sportsii_75d09f5279bd-db-table-wp_bp_activity_meta.table.gz (17/59): adding to final database dump
5190.312 (1) backup_2018-06-17-1445_Sportsii_75d09f5279bd-db-table-wp_bp_friends.table.gz (18/59): adding to final database dump
5190.313 (1) backup_2018-06-17-1445_Sportsii_75d09f5279bd-db-table-wp_bp_groups.table.gz (19/59): adding to final database dump
5190.314 (1) backup_2018-06-17-1445_Sportsii_75d09f5279bd-db-table-wp_bp_groups_groupmeta.table.gz (20/59): adding to final database dump
5190.315 (1) backup_2018-06-17-1445_Sportsii_75d09f5279bd-db-table-wp_bp_groups_members.table.gz (21/59): adding to final database dump
5190.317 (1) backup_2018-06-17-1445_Sportsii_75d09f5279bd-db-table-wp_bp_messages_messages.table.gz (22/59): adding to final database dump
5190.318 (1) backup_2018-06-17-1445_Sportsii_75d09f5279bd-db-table-wp_bp_messages_meta.table.gz (23/59): adding to final database dump
5190.319 (1) backup_2018-06-17-1445_Sportsii_75d09f5279bd-db-table-wp_bp_messages_notices.table.gz (24/59): adding to final database dump
5190.321 (1) backup_2018-06-17-1445_Sportsii_75d09f5279bd-db-table-wp_bp_messages_recipients.table.gz (25/59): adding to final database dump
5190.322 (1) backup_2018-06-17-1445_Sportsii_75d09f5279bd-db-table-wp_bp_notifications.table.gz (26/59): adding to final database dump
5190.324 (1) backup_2018-06-17-1445_Sportsii_75d09f5279bd-db-table-wp_bp_notifications_meta.table.gz (27/59): adding to final database dump
5190.325 (1) backup_2018-06-17-1445_Sportsii_75d09f5279bd-db-table-wp_bp_xprofile_data.table.gz (28/59): adding to final database dump
5190.328 (1) backup_2018-06-17-1445_Sportsii_75d09f5279bd-db-table-wp_bp_xprofile_fields.table.gz (29/59): adding to final database dump
5190.329 (1) backup_2018-06-17-1445_Sportsii_75d09f5279bd-db-table-wp_bp_xprofile_groups.table.gz (30/59): adding to final database dump
5190.331 (1) backup_2018-06-17-1445_Sportsii_75d09f5279bd-db-table-wp_bp_xprofile_meta.table.gz (31/59): adding to final database dump
5190.332 (1) backup_2018-06-17-1445_Sportsii_75d09f5279bd-db-table-wp_em_bookings.table.gz (32/59): adding to final database dump
5190.333 (1) backup_2018-06-17-1445_Sportsii_75d09f5279bd-db-table-wp_em_events.table.gz (33/59): adding to final database dump
5190.337 (1) backup_2018-06-17-1445_Sportsii_75d09f5279bd-db-table-wp_em_locations.table.gz (34/59): adding to final database dump
5190.339 (1) backup_2018-06-17-1445_Sportsii_75d09f5279bd-db-table-wp_em_meta.table.gz (35/59): adding to final database dump
5190.340 (1) backup_2018-06-17-1445_Sportsii_75d09f5279bd-db-table-wp_em_tickets.table.gz (36/59): adding to final database dump
5190.341 (1) backup_2018-06-17-1445_Sportsii_75d09f5279bd-db-table-wp_em_tickets_bookings.table.gz (37/59): adding to final database dump
5190.342 (1) backup_2018-06-17-1445_Sportsii_75d09f5279bd-db-table-wp_icl_content_status.table.gz (38/59): adding to final database dump
5190.343 (1) backup_2018-06-17-1445_Sportsii_75d09f5279bd-db-table-wp_icl_core_status.table.gz (39/59): adding to final database dump
5190.345 (1) backup_2018-06-17-1445_Sportsii_75d09f5279bd-db-table-wp_icl_flags.table.gz (40/59): adding to final database dump
5190.346 (1) backup_2018-06-17-1445_Sportsii_75d09f5279bd-db-table-wp_icl_languages.table.gz (41/59): adding to final database dump
5190.348 (1) backup_2018-06-17-1445_Sportsii_75d09f5279bd-db-table-wp_icl_languages_translations.table.gz (42/59): adding to final database dump
5190.381 (1) backup_2018-06-17-1445_Sportsii_75d09f5279bd-db-table-wp_icl_locale_map.table.gz (43/59): adding to final database dump
5190.383 (1) backup_2018-06-17-1445_Sportsii_75d09f5279bd-db-table-wp_icl_message_status.table.gz (44/59): adding to final database dump
5190.384 (1) backup_2018-06-17-1445_Sportsii_75d09f5279bd-db-table-wp_icl_node.table.gz (45/59): adding to final database dump
5190.385 (1) backup_2018-06-17-1445_Sportsii_75d09f5279bd-db-table-wp_icl_reminders.table.gz (46/59): adding to final database dump
5190.386 (1) backup_2018-06-17-1445_Sportsii_75d09f5279bd-db-table-wp_icl_string_positions.table.gz (47/59): adding to final database dump
5190.387 (1) backup_2018-06-17-1445_Sportsii_75d09f5279bd-db-table-wp_icl_string_status.table.gz (48/59): adding to final database dump
5190.388 (1) backup_2018-06-17-1445_Sportsii_75d09f5279bd-db-table-wp_icl_string_translations.table.gz (49/59): adding to final database dump
5190.390 (1) backup_2018-06-17-1445_Sportsii_75d09f5279bd-db-table-wp_icl_strings.table.gz (50/59): adding to final database dump
5190.391 (1) backup_2018-06-17-1445_Sportsii_75d09f5279bd-db-table-wp_icl_translate.table.gz (51/59): adding to final database dump
5190.392 (1) backup_2018-06-17-1445_Sportsii_75d09f5279bd-db-table-wp_icl_translate_job.table.gz (52/59): adding to final database dump
5190.393 (1) backup_2018-06-17-1445_Sportsii_75d09f5279bd-db-table-wp_icl_translation_batches.table.gz (53/59): adding to final database dump
5190.394 (1) backup_2018-06-17-1445_Sportsii_75d09f5279bd-db-table-wp_icl_translation_status.table.gz (54/59): adding to final database dump
5190.395 (1) backup_2018-06-17-1445_Sportsii_75d09f5279bd-db-table-wp_icl_translations.table.gz (55/59): adding to final database dump
5190.400 (1) backup_2018-06-17-1445_Sportsii_75d09f5279bd-db-table-wp_places_locator.table.gz (56/59): adding to final database dump
5190.401 (1) backup_2018-06-17-1445_Sportsii_75d09f5279bd-db-table-wp_wsluserscontacts.table.gz (57/59): adding to final database dump
5190.402 (1) backup_2018-06-17-1445_Sportsii_75d09f5279bd-db-table-wp_wslusersprofiles.table.gz (58/59): adding to final database dump
5190.403 (1) backup_2018-06-17-1445_Sportsii_75d09f5279bd-db.gz: finished writing out complete database file (768 KB)
5190.421 (1) Total database tables backed up: 58 (backup_2018-06-17-1445_Sportsii_75d09f5279bd-db.gz, size: 812254, sha256)
5190.429 (1) backup_2018-06-17-1445_Sportsii_75d09f5279bd-plugins.zip: plugins: This file has not yet been successfully uploaded: will queue
5190.430 (1) backup_2018-06-17-1445_Sportsii_75d09f5279bd-themes.zip: themes: This file has not yet been successfully uploaded: will queue
5190.430 (1) backup_2018-06-17-1445_Sportsii_75d09f5279bd-uploads.zip: uploads: This file has not yet been successfully uploaded: will queue
5190.431 (1) backup_2018-06-17-1445_Sportsii_75d09f5279bd-others.zip: others: This file has not yet been successfully uploaded: will queue
5190.432 (1) backup_2018-06-17-1445_Sportsii_75d09f5279bd-db.gz: db: This file has not yet been successfully uploaded: will queue
5190.433 (1) Saving backup history. Total backup size: 102.4 MB
5190.437 (1) Requesting upload of the files that have not yet been successfully uploaded (5)
5190.440 (1) Cloud backup selection (1/1): dropbox (last)
5190.441 (1) Beginning dispatch of backup to remote (dropbox)
5190.442 (1) Dropbox: begin cloud upload (using API version 2 with OAuth v2 token)
5190.480 (1) Dropbox: access gained; setting chunk size to: 1024 KB
5190.864 (1) Dropbox quota usage: used=418.3 MB, total=2048 MB, available=1629.7 MB
5190.865 (1) Dropbox: Attempt to upload: backup_2018-06-17-1445_Sportsii_75d09f5279bd-plugins.zip to: backup_2018-06-17-1445_Sportsii_75d09f5279bd-plugins.zip
5192.394 (1) Dropbox chunked upload: 2.3 % uploaded (AAAAAAAAANrVFoW-KCvUkQ, 1048576, 5632 KB)
5194.955 (1) Dropbox chunked upload: 14.7 % uploaded (AAAAAAAAANrVFoW-KCvUkQ, 6815744, 10240 KB)
5198.376 (1) Dropbox chunked upload: 37.3 % uploaded (AAAAAAAAANrVFoW-KCvUkQ, 17301504, 10240 KB)
5201.156 (1) Dropbox chunked upload: 60 % uploaded (AAAAAAAAANrVFoW-KCvUkQ, 27787264, 10240 KB)
5204.650 (1) Dropbox chunked upload: 82.6 % uploaded (AAAAAAAAANrVFoW-KCvUkQ, 38273024, 10240 KB)
7334.647 (2) Opened log file at time: Sun, 17 Jun 2018 20:47:27 +0000 on http://sportsii.com
7334.649 (2) UpdraftPlus WordPress backup plugin (https://updraftplus.com): 1.13.7 WP: 4.8.6 PHP: 5.5.38 (litespeed, Linux a2plcpnl0323.prod.iad2.secureserver.net 2.6.32-773.26.1.lve1.4.46.el6.x86_64 #1 SMP Tue Dec 5 18:55:41 EST 2017 x86_64) MySQL: 5.6.39 WPLANG: en_US Server: Apache safe_mode: 0 max_execution_time: 900 memory_limit: 256M (used: 64.5M | 65M) multisite: N openssl: OpenSSL 1.0.2k-fips  26 Jan 2017 mcrypt: Y LANG:  ZipArchive::addFile: N
7335.008 (2) Free space on disk containing Updraft's temporary directory: 1797982.2 MB
7335.013 (2) Backup run: resumption=2, nonce=75d09f5279bd, begun at=1529261112 (7335s ago), job type=backup, previous check-in=295.1s
7335.014 (2) Long time past since expected resumption time: approx expected=1529266662.5, now=1529268447.5, diff=1785
7335.019 (2) [Warning] Your website is visited infrequently and UpdraftPlus is not getting the resources it hoped for; please read this page: https://updraftplus.com/faqs/why-am-i-getting-warnings-about-my-site-not-having-enough-visitors/
7335.024 (2) Scheduling a resumption (3) after 345 seconds (1529268792) in case this run gets aborted
7335.195 (2) Checking if we have a zip executable available
7335.213 (2) Zip engine: found/will use a binary zip: /usr/bin/zip
7335.214 (2) Creation of backups of directories: already finished
7335.215 (2) Saving backup status to database (elements: 8)
7335.230 (2) Database dump (WordPress DB): Creation was completed already
7335.239 (2) backup_2018-06-17-1445_Sportsii_75d09f5279bd-plugins.zip: plugins: This file has not yet been successfully uploaded: will queue
7335.240 (2) backup_2018-06-17-1445_Sportsii_75d09f5279bd-themes.zip: themes: This file has not yet been successfully uploaded: will queue
7335.241 (2) backup_2018-06-17-1445_Sportsii_75d09f5279bd-uploads.zip: uploads: This file has not yet been successfully uploaded: will queue
7335.242 (2) backup_2018-06-17-1445_Sportsii_75d09f5279bd-others.zip: others: This file has not yet been successfully uploaded: will queue
7335.243 (2) backup_2018-06-17-1445_Sportsii_75d09f5279bd-db.gz: db: This file has not yet been successfully uploaded: will queue
7335.244 (2) Saving backup history. Total backup size: 102.4 MB
7335.248 (2) Requesting upload of the files that have not yet been successfully uploaded (5)
7335.249 (2) Cloud backup selection (1/1): dropbox (last)
7335.250 (2) Beginning dispatch of backup to remote (dropbox)
7335.251 (2) Dropbox: begin cloud upload (using API version 2 with OAuth v2 token)
7335.331 (2) Dropbox: access gained; setting chunk size to: 10240 KB
7335.665 (2) Dropbox quota usage: used=418.3 MB, total=2048 MB, available=1629.7 MB
7335.667 (2) This is a resumption: 38273024 bytes had already been uploaded
7335.669 (2) Dropbox: Attempt to upload: backup_2018-06-17-1445_Sportsii_75d09f5279bd-plugins.zip to: backup_2018-06-17-1445_Sportsii_75d09f5279bd-plugins.zip
7344.429 (2) Dropbox chunked upload exception (Exception): Submitted input out of alignment: got [38273024] expected [46330469] (line: 255, file: /home/sportsii902/public_html/wp-content/plugins/updraftplus/includes/Dropbox2/API.php)
7344.430 (2) Dropbox not yet aligned: tried=38273024, wanted=46330469; will attempt recovery
7347.308 (2) Recording as successfully uploaded: backup_2018-06-17-1445_Sportsii_75d09f5279bd-plugins.zip (668ab4a1bedda4107fbec7c5ff8d95aa)
7347.323 (2) Deleting local file: backup_2018-06-17-1445_Sportsii_75d09f5279bd-plugins.zip: OK
7347.324 (2) Dropbox: File upload success (backup_2018-06-17-1445_Sportsii_75d09f5279bd-plugins.zip): 45244 KB in 11s (3881 KB/s)
7347.527 (2) Dropbox error: exception (Dropbox_Exception) occurred whilst getting account info: <!DOCTYPE html>
<html>
<head><meta http-equiv="Content-Type" content="text/html; charset=utf-8">
<title>Dropbox - 4xx</title>
<link href="https://cfl.dropboxstatic.com/static/css/error.css" rel="stylesheet" type="text/css"/>
<link rel="shortcut icon" href="https://cfl.dropboxstatic.com/static/images/favicon.ico"/>

</head>
<body>
<div class="figure">
<img src="https://cfl.dropboxstatic.com/static/images/illustration_catalog/404_error-illo.png" srcset="https://cfl.dropboxstatic.com/static/images/illustration_catalog/404_error-illo@2x.png 2x" alt="Error: 4xx"/>
</div>
<div id="errorbox">
<div class="not-found"> <h1>Error (4xx)</h1> We can't find the page you're looking for. <div class="not-found--links"> Here are a few links that may be helpful: <ul> <li><a href="https://www.dropbox.com/home?_tk=fof">Home</a></li> <li><a href="https://www.dropbox.com/help?_tk=fof">Help center</a></li> <li><a href="https://www.dropbox.com/login?_tk=fof">Sign in</a></li> <li><a href="https://www.dropbox.com/register?_tk=fof">Get a free account</a></li> <li><a href="https://www.dropbox.com/plus?_tk=fof">Dropbox Plus</a></li> <li><a href="https://www.dropbox.com/business?_tk=fof">Dropbox Business</a></li> </ul> </div> </div>
</div>

<script>
message = {"ru": "\u003cdiv class=\"not-found\"\u003e \u003ch1\u003e\u041e\u0448\u0438\u0431\u043a\u0430 (4xx)\u003c/h1\u003e \u041d\u0435 \u0443\u0434\u0430\u043b\u043e\u0441\u044c \u043d\u0430\u0439\u0442\u0438 \u0441\u0442\u0440\u0430\u043d\u0438\u0446\u0443, \u043a\u043e\u0442\u043e\u0440\u0443\u044e \u0432\u044b \u0438\u0449\u0435\u0442\u0435. \u003cdiv class=\"not-found--links\"\u003e \u0412\u043e\u0442 \u043d\u0435\u0441\u043a\u043e\u043b\u044c\u043a\u043e \u0441\u0441\u044b\u043b\u043e\u043a, \u043a\u043e\u0442\u043e\u0440\u044b\u0435 \u043c\u043e\u0433\u0443 \u0432\u0430\u043c \u043f\u0440\u0438\u0433\u043e\u0434\u0438\u0442\u044c\u0441\u044f: \u003cul\u003e \u003cli\u003e\u003ca href=\"https://www.dropbox.com/home?_tk=fof\"\u003e\u0414\u043e\u043c\u0430\u0448\u043d\u044f\u044f \u0441\u0442\u0440\u0430\u043d\u0438\u0446\u0430\u003c/a\u003e\u003c/li\u003e \u003cli\u003e\u003ca href=\"https://www.dropbox.com/help?_tk=fof\"\u003e\u0421\u043f\u0440\u0430\u0432\u043e\u0447\u043d\u044b\u0439 \u0446\u0435\u043d\u0442\u0440\u003c/a\u003e\u003c/li\u003e \u003cli\u003e\u003ca href=\"https://www.dropbox.com/login?_tk=fof\"\u003e\u0412\u043e\u0439\u0442\u0438\u003c/a\u003e\u003c/li\u003e \u003cli\u003e\u003ca href=\"https://www.dropbox.com/register?_tk=fof\"\u003e\u0417\u0430\u0432\u0435\u0434\u0438\u0442\u0435 \u0431\u0435\u0441\u043f\u043b\u0430\u0442\u043d\u044b\u0439 \u0430\u043a\u043a\u0430\u0443\u043d\u0442\u003c/a\u003e\u003c/li\u003e \u003cli\u003e\u003ca href=\"https://www.dropbox.com/plus?_tk=fof\"\u003eDropbox Plus\u003c/a\u003e\u003c/li\u003e \u003cli\u003e\u003ca href=\"https://www.dropbox.com/business?_tk=fof\"\u003eDropbox Business\u003c/a\u003e\u003c/li\u003e \u003c/ul\u003e \u003c/div\u003e \u003c/div\u003e", "fr": "\u003cdiv class=\"not-found\"\u003e \u003ch1\u003eErreur (4xx)\u003c/h1\u003e La page recherch\u00e9e est introuvable. \u003cdiv class=\"not-found--links\"\u003e Voici quelques liens utiles\u00a0: \u003cul\u003e \u003cli\u003e\u003ca href=\"https://www.dropbox.com/home?_tk=fof\"\u003eAccueil\u003c/a\u003e\u003c/li\u003e\u003cli\u003e\u003ca href=\"https://www.dropbox.com/help?_tk=fof\"\u003eCentre d'assistance\u003c/a\u003e\u003c/li\u003e\u003cli\u003e\u003ca href=\"https://www.dropbox.com/login?_tk=fof\"\u003eSe connecter\u003c/a\u003e\u003c/li\u003e\u003cli\u003e\u003ca href=\"https://www.dropbox.com/register?_tk=fof\"\u003eObtenir un compte gratuit\u003c/a\u003e\u003c/li\u003e\u003cli\u003e\u003ca href=\"https://www.dropbox.com/plus?_tk=fof\"\u003eDropbox\u00a0Plus\u003c/a\u003e\u003c/li\u003e\u003cli\u003e\u003ca href=\"https://www.dropbox.com/business?_tk=fof\"\u003eDropbox\u00a0Business\u003c/a\u003e\u003c/li\u003e\u003c/ul\u003e\u003c/div\u003e\u003c/div\u003e", "zh_TW": "\u003cdiv class=\"not-found\"\u003e\u003ch1\u003e\u932f\u8aa4 (4xx)\u003c/h1\u003e \u6211\u5011\u627e\u4e0d\u5230\u60a8\u8981\u67e5\u770b\u7684\u9801\u9762\u3002\u003cdiv class=\"not-found--links\"\u003e\u8acb\u53c3\u8003\u4ee5\u4e0b\u9023\u7d50\uff1a\u003cul\u003e\u003cli\u003e\u003ca href=\"https://www.dropbox.com/home?_tk=fof\"\u003e\u9996\u9801\u003c/a\u003e\u003c/li\u003e\u003cli\u003e\u003ca href=\"https://www.dropbox.com/help?_tk=fof\"\u003e\u8aaa\u660e\u4e2d\u5fc3\u003c/a\u003e\u003c/li\u003e\u003cli\u003e\u003ca href=\"https://www.dropbox.com/login?_tk=fof\"\u003e\u767b\u5165\u003c/a\u003e\u003c/li\u003e\u003cli\u003e\u003ca href=\"https://www.dropbox.com/register?_tk=fof\"\u003e\u53d6\u5f97\u514d\u8cbb\u5e33\u6236\u003c/a\u003e\u003c/li\u003e\u003cli\u003e\u003ca href=\"https://www.dropbox.com/plus?_tk=fof\"\u003eDropbox Plus\u003c/a\u003e\u003c/li\u003e \u003cli\u003e\u003ca href=\"https://www.dropbox.com/business?_tk=fof\"\u003eDropbox Business\u003c/a\u003e\u003c/li\u003e\u003c/ul\u003e\u003c/div\u003e\u003c/div\u003e", "th_TH": "\u003cdiv class=\"not-found\"\u003e\u003ch1\u003e\u0e02\u0e49\u0e2d\u0e1c\u0e34\u0e14\u0e1e\u0e25\u0e32\u0e14 (4xx)\u003c/h1\u003e \u0e40\u0e23\u0e32\u0e44\u0e21\u0e48\u0e1e\u0e1a\u0e2b\u0e19\u0e49\u0e32\u0e17\u0e35\u0e48\u0e04\u0e38\u0e13\u0e15\u0e49\u0e2d\u0e07\u0e01\u0e32\u0e23\u0e2b\u0e32 \u003cdiv class=\"not-found--links\"\u003e \u0e19\u0e35\u0e48\u0e04\u0e37\u0e2d\u0e1a\u0e32\u0e07\u0e25\u0e34\u0e07\u0e01\u0e4c\u0e17\u0e35\u0e48\u0e2d\u0e32\u0e08\u0e40\u0e1b\u0e47\u0e19\u0e1b\u0e23\u0e30\u0e42\u0e22\u0e0a\u0e19\u0e4c: \u003cul\u003e\u003cli\u003e\u003ca href=\"https://www.dropbox.com/home?_tk=fof\"\u003e\u0e2b\u0e19\u0e49\u0e32\u0e2b\u0e25\u0e31\u0e01\u003c/a\u003e\u003c/li\u003e\u003cli\u003e\u003ca href=\"https://www.dropbox.com/help?_tk=fof\"\u003e\u0e28\u0e39\u0e19\u0e22\u0e4c\u0e04\u0e27\u0e32\u0e21\u0e0a\u0e48\u0e27\u0e22\u0e40\u0e2b\u0e25\u0e37\u0e2d\u003c/a\u003e\u003c/li\u003e\u003cli\u003e\u003ca href=\"https://www.dropbox.com/login?_tk=fof\"\u003e\u0e25\u0e07\u0e0a\u0e37\u0e48\u0e2d\u0e40\u0e02\u0e49\u0e32\u0e43\u0e0a\u0e49\u0e07\u0e32\u0e19\u003c/a\u003e\u003c/li\u003e\u003cli\u003e\u003ca href=\"https://www.dropbox.com/register?_tk=fof\"\u003e\u0e23\u0e31\u0e1a\u0e1a\u0e31\u0e0d\u0e0a\u0e35\u0e1f\u0e23\u0e35\u003c/a\u003e\u003c/li\u003e\u003cli\u003e\u003ca href=\"https://www.dropbox.com/plus?_tk=fof\"\u003eDropbox Plus\u003c/a\u003e\u003c/li\u003e\u003cli\u003e\u003ca href=\"https://www.dropbox.com/business?_tk=fof\"\u003eDropbox Business\u003c/a\u003e\u003c/li\u003e\u003c/ul\u003e\u003c/div\u003e\u003c/div\u003e", "pt_BR": "\u003cdiv class=\"not-found\"\u003e \u003ch1\u003eErro (4xx)\u003c/h1\u003e N\u00e3o encontramos a p\u00e1gina que voc\u00ea est\u00e1 procurando. \u003cdiv class=\"not-found--links\"\u003e Aqui est\u00e3o alguns links para informa\u00e7\u00f5es que podem ser \u00fateis: \u003cul\u003e\u003cli\u003e\u003ca href=\"https://www.dropbox.com/home?_tk=fof\"\u003eP\u00e1gina inicial\u003c/a\u003e\u003c/li\u003e\u003cli\u003e\u003ca href=\"https://www.dropbox.com/help?_tk=fof\"\u003eCentral de ajuda\u003c/a\u003e\u003c/li\u003e\u003cli\u003e\u003ca href=\"https://www.dropbox.com/login?_tk=fof\"\u003eAcessar\u003c/a\u003e\u003c/li\u003e\u003cli\u003e\u003ca href=\"https://www.dropbox.com/register?_tk=fof\"\u003eObter uma conta gratuita\u003c/a\u003e\u003c/li\u003e\u003cli\u003e\u003ca href=\"https://www.dropbox.com/plus?_tk=fof\"\u003eDropbox Plus\u003c/a\u003e\u003c/li\u003e\u003cli\u003e\u003ca href=\"https://www.dropbox.com/business?_tk=fof\"\u003eDropbox Business\u003c/a\u003e\u003c/li\u003e\u003c/ul\u003e\u003c/div\u003e\u003c/div\u003e", "zh_CN": "\u003cdiv class=\"not-found\"\u003e\u003ch1\u003e\u9519\u8bef (4xx)\u003c/h1\u003e\u6211\u4eec\u65e0\u6cd5\u627e\u5230\u60a8\u6b63\u5728\u5bfb\u627e\u7684\u9875\u9762\u3002\u003cdiv class=\"not-found--links\"\u003e\u4ee5\u4e0b\u51e0\u4e2a\u94fe\u63a5\u53ef\u80fd\u4f1a\u6709\u6240\u5e2e\u52a9\uff1a\u003cul\u003e\u003cli\u003e\u003ca href=\"https://www.dropbox.com/home?_tk=fof\"\u003e\u9996\u9875\u003c/a\u003e\u003c/li\u003e\u003cli\u003e\u003ca href=\"https://www.dropbox.com/help?_tk=fof\"\u003e\u5e2e\u52a9\u4e2d\u5fc3\u003c/a\u003e\u003c/li\u003e\u003cli\u003e\u003ca href=\"https://www.dropbox.com/login?_tk=fof\"\u003e\u767b\u5f55\u003c/a\u003e\u003c/li\u003e\u003cli\u003e\u003ca href=\"https://www.dropbox.com/register?_tk=fof\"\u003e\u83b7\u53d6\u514d\u8d39\u5e10\u6237\u003c/a\u003e\u003c/li\u003e\u003cli\u003e\u003ca href=\"https://www.dropbox.com/plus?_tk=fof\"\u003eDropbox Pro\u003c/a\u003e\u003c/li\u003e \u003cli\u003e\u003ca href=\"https://www.dropbox.com/business?_tk=fof\"\u003eDropbox Business\u003c/a\u003e\u003c/li\u003e \u003c/ul\u003e \u003c/div\u003e \u003c/div\u003e", "da_DK": "\u003cdiv class=\"not-found\"\u003e \u003ch1\u003eFejl (4xx)\u003c/h1\u003e Vi kan ikke finde den \u00f8nskede side. \u003cdiv class=\"not-found--links\"\u003e Du kan m\u00e5ske bruge disse links: \u003cul\u003e \u003cli\u003e\u003ca href=\"https://www.dropbox.com/home?_tk=fof\"\u003eStartside\u003c/a\u003e\u003c/li\u003e \u003cli\u003e\u003ca href=\"https://www.dropbox.com/help?_tk=fof\"\u003eHj\u00e6lpecenter\u003c/a\u003e\u003c/li\u003e \u003cli\u003e\u003ca href=\"https://www.dropbox.com/login?_tk=fof\"\u003eLog p\u00e5\u003c/a\u003e\u003c/li\u003e \u003cli\u003e\u003ca href=\"https://www.dropbox.com/register?_tk=fof\"\u003eOpret en gratis konto\u003c/a\u003e\u003c/li\u003e \u003cli\u003e\u003ca href=\"https://www.dropbox.com/plus?_tk=fof\"\u003eDropbox Plus\u003c/a\u003e\u003c/li\u003e \u003cli\u003e\u003ca href=\"https://www.dropbox.com/business?_tk=fof\"\u003eDropbox Business\u003c/a\u003e\u003c/li\u003e \u003c/ul\u003e \u003c/div\u003e \u003c/div\u003e", "de": "\u003cdiv class=\"not-found\"\u003e \u003ch1\u003eFehler (4xx)\u003c/h1\u003e Die gew\u00fcnschte Seite wurde nicht gefunden. \u003cdiv class=\"not-found--links\"\u003e Hier sind einige Links, die Ihnen vielleicht weiterhelfen: \u003cul\u003e \u003cli\u003e\u003ca href=\"https://www.dropbox.com/home?_tk=fof\"\u003eStart\u003c/a\u003e\u003c/li\u003e \u003cli\u003e\u003ca href=\"https://www.dropbox.com/help?_tk=fof\"\u003eHilfecenter\u003c/a\u003e\u003c/li\u003e \u003cli\u003e\u003ca href=\"https://www.dropbox.com/login?_tk=fof\"\u003eAnmelden\u003c/a\u003e\u003c/li\u003e \u003cli\u003e\u003ca href=\"https://www.dropbox.com/register?_tk=fof\"\u003eKostenloses Konto erstellen\u003c/a\u003e\u003c/li\u003e\u003cli\u003e\u003ca href=\"https://www.dropbox.com/plus?_tk=fof\"\u003eDropbox Plus\u003c/a\u003e\u003c/li\u003e \u003cli\u003e\u003ca href=\"https://www.dropbox.com/business?_tk=fof\"\u003eDropbox Business\u003c/a\u003e\u003c/li\u003e \u003c/ul\u003e \u003c/div\u003e \u003c/div\u003e", "ko": "\u003cdiv class=\"not-found\"\u003e \u003ch1\u003e\uc624\ub958(4xx)\u003c/h1\u003e \ud574\ub2f9 \ud398\uc774\uc9c0\ub97c \ucc3e\uc744 \uc218 \uc5c6\uc2b5\ub2c8\ub2e4. \u003cdiv class=\"not-found--links\"\u003e \uc544\ub798\uc5d0 \uba87 \uac00\uc9c0 \uc720\uc6a9\ud55c \ub9c1\ud06c\uac00 \ub098\uc640 \uc788\uc2b5\ub2c8\ub2e4. \u003cul\u003e \u003cli\u003e\u003ca href=\"https://www.dropbox.com/home?_tk=fof\"\u003e\ud648\u003c/a\u003e\u003c/li\u003e \u003cli\u003e\u003ca href=\"https://www.dropbox.com/help?_tk=fof\"\u003e\ub3c4\uc6c0\ub9d0 \uc13c\ud130\u003c/a\u003e\u003c/li\u003e \u003cli\u003e\u003ca href=\"https://www.dropbox.com/login?_tk=fof\"\u003e\ub85c\uadf8\uc778\u003c/a\u003e\u003c/li\u003e \u003cli\u003e\u003ca href=\"https://www.dropbox.com/register?_tk=fof\"\u003e\ubb34\ub8cc \uacc4\uc815 \uc5bb\uae30\u003c/a\u003e\u003c/li\u003e \u003cli\u003e\u003ca href=\"https://www.dropbox.com/plus?_tk=fof\"\u003eDropbox Plus\u003c/a\u003e\u003c/li\u003e \u003cli\u003e\u003ca href=\"https://www.dropbox.com/business?_tk=fof\"\u003eDropbox Business\u003c/a\u003e\u003c/li\u003e \u003c/ul\u003e\u003c/div\u003e\u003c/div\u003e", "it": "\u003cdiv class=\"not-found\"\u003e \u003ch1\u003eErrore (4xx)\u003c/h1\u003e Non troviamo la pagina che stai cercando. \u003cdiv class=\"not-found--links\"\u003e Ecco alcuni link che potrebbero essere utili: \u003cul\u003e \u003cli\u003e\u003ca href=\"https://www.dropbox.com/home?_tk=fof\"\u003eHomepage\u003c/a\u003e\u003c/li\u003e \u003cli\u003e\u003ca href=\"https://www.dropbox.com/help?_tk=fof\"\u003eCentro assistenza\u003c/a\u003e\u003c/li\u003e \u003cli\u003e\u003ca href=\"https://www.dropbox.com/login?_tk=fof\"\u003eAccedi\u003c/a\u003e\u003c/li\u003e \u003cli\u003e\u003ca href=\"https://www.dropbox.com/register?_tk=fof\"\u003eOttieni un account gratuito\u003c/a\u003e\u003c/li\u003e \u003cli\u003e\u003ca href=\"https://www.dropbox.com/plus?_tk=fof\"\u003eDropbox Plus\u003c/a\u003e\u003c/li\u003e \u003cli\u003e\u003ca href=\"https://www.dropbox.com/business?_tk=fof\"\u003eDropbox Business\u003c/a\u003e\u003c/li\u003e \u003c/ul\u003e \u003c/div\u003e \u003c/div\u003e", "ja": "\u003cdiv class=\"not-found\"\u003e\u003ch1\u003e\u30a8\u30e9\u30fc\uff084xx\uff09\u003c/h1\u003e\u304a\u63a2\u3057\u306e\u30da\u30fc\u30b8\u304c\u898b\u3064\u304b\u308a\u307e\u305b\u3093\u3002\u003cdiv class=\"not-found--links\"\u003e\u3053\u3061\u3089\u306e\u30ea\u30f3\u30af\u3092\u3054\u89a7\u304f\u3060\u3055\u3044\u3002\u003cul\u003e\u003cli\u003e\u003ca href=\"https://www.dropbox.com/home?_tk=fof\"\u003e\u30db\u30fc\u30e0\u003c/a\u003e\u003c/li\u003e\u003cli\u003e\u003ca href=\"https://www.dropbox.com/help?_tk=fof\"\u003e\u30d8\u30eb\u30d7\u30bb\u30f3\u30bf\u30fc\u003c/a\u003e\u003c/li\u003e\u003cli\u003e\u003ca href=\"https://www.dropbox.com/login?_tk=fof\"\u003e\u30ed\u30b0\u30a4\u30f3\u003c/a\u003e\u003c/li\u003e\u003cli\u003e\u003ca href=\"https://www.dropbox.com/register?_tk=fof\"\u003e\u7121\u6599\u30a2\u30ab\u30a6\u30f3\u30c8\u4f5c\u6210\u003c/a\u003e\u003c/li\u003e\u003cli\u003e\u003ca href=\"https://www.dropbox.com/plus?_tk=fof\"\u003eDropbox Plus\u003c/a\u003e\u003c/li\u003e\u003cli\u003e\u003ca href=\"https://www.dropbox.com/business?_tk=fof\"\u003eDropbox Business\u003c/a\u003e\u003c/li\u003e\u003c/ul\u003e\u003c/div\u003e\u003c/div\u003e", "uk_UA": "\u003cdiv class=\"not-found\"\u003e\u003ch1\u003e\u041f\u043e\u043c\u0438\u043b\u043a\u0430 (4xx)\u003c/h1\u003e \u041d\u0430\u043c \u043d\u0435 \u0432\u0434\u0430\u0454\u0442\u044c\u0441\u044f \u0437\u043d\u0430\u0439\u0442\u0438 \u0441\u0442\u043e\u0440\u0456\u043d\u043a\u0443, \u044f\u043a\u0443 \u0432\u0438 \u0448\u0443\u043a\u0430\u0454\u0442\u0435. \u003cdiv class=\"not-found--links\"\u003e \u041d\u0438\u0436\u0447\u0435 \u043d\u0430\u0432\u0435\u0434\u0435\u043d\u043e \u043a\u0456\u043b\u044c\u043a\u0430 \u043a\u043e\u0440\u0438\u0441\u043d\u0438\u0445 \u043f\u043e\u0441\u0438\u043b\u0430\u043d\u044c: \u003cul\u003e\u003cli\u003e\u003ca href=\"https://www.dropbox.com/home?_tk=fof\"\u003e\u0414\u043e\u043c\u0430\u0448\u043d\u044f \u0441\u0442\u043e\u0440\u0456\u043d\u043a\u0430\u003c/a\u003e\u003c/li\u003e\u003cli\u003e\u003ca href=\"https://www.dropbox.com/help?_tk=fof\"\u003e\u0426\u0435\u043d\u0442\u0440 \u0434\u043e\u0432\u0456\u0434\u043a\u0438\u003c/a\u003e\u003c/li\u003e\u003cli\u003e\u003ca href=\"https://www.dropbox.com/login?_tk=fof\"\u003e\u0412\u0445\u0456\u0434\u003c/a\u003e\u003c/li\u003e\u003cli\u003e\u003ca href=\"https://www.dropbox.com/register?_tk=fof\"\u003e\u041e\u0442\u0440\u0438\u043c\u0430\u043d\u043d\u044f \u0431\u0435\u0437\u043a\u043e\u0448\u0442\u043e\u0432\u043d\u043e\u0457 \u043e\u0431\u043b\u0456\u043a\u043e\u0432\u043a\u0438\u003c/a\u003e\u003c/li\u003e\u003cli\u003e\u003ca href=\"https://www.dropbox.com/plus?_tk=fof\"\u003eDropbox Plus\u003c/a\u003e\u003c/li\u003e\u003cli\u003e\u003ca href=\"https://www.dropbox.com/business?_tk=fof\"\u003eDropbox Business\u003c/a\u003e\u003c/li\u003e\u003c/ul\u003e\u003c/div\u003e\u003c/div\u003e", "nl_NL": "\u003cdiv class=\"not-found\"\u003e \u003ch1\u003eFout (4xx)\u003c/h1\u003e We kunnen de pagina die je zoekt niet vinden. \u003cdiv class=\"not-found--links\"\u003e Hier zijn een paar handige links: \u003cul\u003e \u003cli\u003e\u003ca href=\"https://www.dropbox.com/home?_tk=fof\"\u003eStartpagina\u003c/a\u003e\u003c/li\u003e \u003cli\u003e\u003ca href=\"https://www.dropbox.com/help?_tk=fof\"\u003eHelpcentrum\u003c/a\u003e\u003c/li\u003e \u003cli\u003e\u003ca href=\"https://www.dropbox.com/login?_tk=fof\"\u003eAanmelden\u003c/a\u003e\u003c/li\u003e \u003cli\u003e\u003ca href=\"https://www.dropbox.com/register?_tk=fof\"\u003eEen gratis account maken\u003c/a\u003e\u003c/li\u003e \u003cli\u003e\u003ca href=\"https://www.dropbox.com/plus?_tk=fof\"\u003eDropbox Plus\u003c/a\u003e\u003c/li\u003e \u003cli\u003e\u003ca href=\"https://www.dropbox.com/business?_tk=fof\"\u003eDropbox Business\u003c/a\u003e\u003c/li\u003e \u003c/ul\u003e \u003c/div\u003e \u003c/div\u003e", "pl": "\u003cdiv class=\"not-found\"\u003e\u003ch1\u003eB\u0142\u0105d (4xx)\u003c/h1\u003e Nie mo\u017cemy znale\u017a\u0107 strony, kt\u00f3rej szukasz. \u003cdiv class=\"not-found--links\"\u003e Oto kilka \u0142\u0105czy, kt\u00f3re mog\u0105 si\u0119 przyda\u0107: \u003cul\u003e \u003cli\u003e\u003ca href=\"https://www.dropbox.com/home?_tk=fof\"\u003eStrona g\u0142\u00f3wna\u003c/a\u003e\u003c/li\u003e \u003cli\u003e\u003ca href=\"https://www.dropbox.com/help?_tk=fof\"\u003eCentrum pomocy\u003c/a\u003e\u003c/li\u003e\u003cli\u003e\u003ca href=\"https://www.dropbox.com/login?_tk=fof\"\u003eZaloguj si\u0119\u003c/a\u003e\u003c/li\u003e\u003cli\u003e\u003ca href=\"https://www.dropbox.com/register?_tk=fof\"\u003eUzyskaj bezp\u0142atne konto\u003c/a\u003e\u003c/li\u003e\u003cli\u003e\u003ca href=\"https://www.dropbox.com/plus?_tk=fof\"\u003eDropbox Plus\u003c/a\u003e\u003c/li\u003e\u003cli\u003e\u003ca href=\"https://www.dropbox.com/business?_tk=fof\"\u003eDropbox Business\u003c/a\u003e\u003c/li\u003e\u003c/ul\u003e\u003c/div\u003e\u003c/div\u003e", "sv_SE": "\u003cdiv class=\"not-found\"\u003e \u003ch1\u003eFel (4xx)\u003c/h1\u003e Det g\u00e5r inte att hitta sidan du letar efter. \u003cdiv class=\"not-found--links\"\u003e H\u00e4r \u00e4r n\u00e5gra l\u00e4nkar som kan vara till hj\u00e4lp. \u003cul\u003e \u003cli\u003e\u003ca href=\"https://www.dropbox.com/home?_tk=fof\"\u003eHem\u003c/a\u003e\u003c/li\u003e \u003cli\u003e\u003ca href=\"https://www.dropbox.com/help?_tk=fof\"\u003eHj\u00e4lpcenter\u003c/a\u003e\u003c/li\u003e \u003cli\u003e\u003ca href=\"https://www.dropbox.com/login?_tk=fof\"\u003eLogga in\u003c/a\u003e\u003c/li\u003e \u003cli\u003e\u003ca href=\"https://www.dropbox.com/register?_tk=fof\"\u003eSkaffa gratiskonto\u003c/a\u003e\u003c/li\u003e \u003cli\u003e\u003ca href=\"https://www.dropbox.com/plus?_tk=fof\"\u003eDropbox Plus\u003c/a\u003e\u003c/li\u003e \u003cli\u003e\u003ca href=\"https://www.dropbox.com/business?_tk=fof\"\u003eDropbox Business\u003c/a\u003e\u003c/li\u003e \u003c/ul\u003e \u003c/div\u003e \u003c/div\u003e", "en_GB": "\u003cdiv class=\"not-found\"\u003e \u003ch1\u003eError (4xx)\u003c/h1\u003e We can't find the page you're looking for. \u003cdiv class=\"not-found--links\"\u003e Here are a few links that may be helpful: \u003cul\u003e \u003cli\u003e\u003ca href=\"https://www.dropbox.com/home?_tk=fof\"\u003eHome\u003c/a\u003e\u003c/li\u003e \u003cli\u003e\u003ca href=\"https://www.dropbox.com/help?_tk=fof\"\u003eHelp Centre\u003c/a\u003e\u003c/li\u003e \u003cli\u003e\u003ca href=\"https://www.dropbox.com/login?_tk=fof\"\u003eSign in\u003c/a\u003e\u003c/li\u003e \u003cli\u003e\u003ca href=\"https://www.dropbox.com/register?_tk=fof\"\u003eGet a free account\u003c/a\u003e\u003c/li\u003e \u003cli\u003e\u003ca href=\"https://www.dropbox.com/plus?_tk=fof\"\u003eDropbox Plus\u003c/a\u003e\u003c/li\u003e \u003cli\u003e\u003ca href=\"https://www.dropbox.com/business?_tk=fof\"\u003eDropbox Business\u003c/a\u003e\u003c/li\u003e \u003c/ul\u003e \u003c/div\u003e \u003c/div\u003e", "ms": "\u003cdiv class=\"not-found\"\u003e \u003ch1\u003eRalat (4xx)\u003c/h1\u003e Kami tidak menemui halaman yang anda cari. \u003cdiv class=\"not-found--links\"\u003e Ini beberapa pautan yang boleh membantu: \u003cul\u003e \u003cli\u003e\u003ca href=\"https://www.dropbox.com/home?_tk=fof\"\u003eUtama\u003c/a\u003e\u003c/li\u003e \u003cli\u003e\u003ca href=\"https://www.dropbox.com/help?_tk=fof\"\u003ePusat bantuan\u003c/a\u003e\u003c/li\u003e \u003cli\u003e\u003ca href=\"https://www.dropbox.com/login?_tk=fof\"\u003eDaftar masuk\u003c/a\u003e\u003c/li\u003e \u003cli\u003e\u003ca href=\"https://www.dropbox.com/register?_tk=fof\"\u003eDapatkan akaun percuma\u003c/a\u003e\u003c/li\u003e \u003cli\u003e\u003ca href=\"https://www.dropbox.com/plus?_tk=fof\"\u003eDropbox Plus\u003c/a\u003e\u003c/li\u003e \u003cli\u003e\u003ca href=\"https://www.dropbox.com/business?_tk=fof\"\u003eDropbox Business\u003c/a\u003e\u003c/li\u003e \u003c/ul\u003e \u003c/div\u003e \u003c/div\u003e", "es_ES": "\u003cdiv class=\"not-found\"\u003e \u003ch1\u003eError (4xx)\u003c/h1\u003e No hemos encontrado la p\u00e1gina que est\u00e1s buscando. \u003cdiv class=\"not-found--links\"\u003e Aqu\u00ed tienes algunos enlaces que tal vez puedan ayudarte: \u003cul\u003e \u003cli\u003e\u003ca href=\"https://www.dropbox.com/home?_tk=fof\"\u003eInicio\u003c/a\u003e\u003c/li\u003e \u003cli\u003e\u003ca href=\"https://www.dropbox.com/help?_tk=fof\"\u003eCentro de ayuda\u003c/a\u003e\u003c/li\u003e \u003cli\u003e\u003ca href=\"https://www.dropbox.com/login?_tk=fof\"\u003eIniciar sesi\u00f3n\u003c/a\u003e\u003c/li\u003e \u003cli\u003e\u003ca href=\"https://www.dropbox.com/register?_tk=fof\"\u003eObtener una cuenta gratis\u003c/a\u003e\u003c/li\u003e \u003cli\u003e\u003ca href=\"https://www.dropbox.com/plus?_tk=fof\"\u003eDropbox Plus\u003c/a\u003e\u003c/li\u003e \u003cli\u003e\u003ca href=\"https://www.dropbox.com/business?_tk=fof\"\u003eDropbox Business\u003c/a\u003e\u003c/li\u003e \u003c/ul\u003e \u003c/div\u003e \u003c/div\u003e", "nb_NO": "\u003cdiv class=\"not-found\"\u003e \u003ch1\u003eFeil (4xx)\u003c/h1\u003e Vi finner ikke siden du leter etter. \u003cdiv class=\"not-found--links\"\u003e Her er noen koblinger som kanskje kan hjelpe deg: \u003cul\u003e \u003cli\u003e\u003ca href=\"https://www.dropbox.com/home?_tk=fof\"\u003eHjem\u003c/a\u003e\u003c/li\u003e \u003cli\u003e\u003ca href=\"https://www.dropbox.com/help?_tk=fof\"\u003eHjelpesenter\u003c/a\u003e\u003c/li\u003e \u003cli\u003e\u003ca href=\"https://www.dropbox.com/login?_tk=fof\"\u003eLogg p\u00e5\u003c/a\u003e\u003c/li\u003e \u003cli\u003e\u003ca href=\"https://www.dropbox.com/register?_tk=fof\"\u003eF\u00e5 en gratis konto\u003c/a\u003e\u003c/li\u003e \u003cli\u003e\u003ca href=\"https://www.dropbox.com/plus?_tk=fof\"\u003eDropbox Plus\u003c/a\u003e\u003c/li\u003e \u003cli\u003e\u003ca href=\"https://www.dropbox.com/business?_tk=fof\"\u003eDropbox Business\u003c/a\u003e\u003c/li\u003e \u003c/ul\u003e \u003c/div\u003e \u003c/div\u003e", "id": "\u003cdiv class=\"not-found\"\u003e \u003ch1\u003eKesalahan (4xx)\u003c/h1\u003e Kami tidak dapat menemukan halaman yang Anda cari. \u003cdiv class=\"not-found--links\"\u003e Berikut beberapa tautan yang mungkin bisa membantu: \u003cul\u003e \u003cli\u003e\u003ca href=\"https://www.dropbox.com/home?_tk=fof\"\u003eBeranda\u003c/a\u003e\u003c/li\u003e \u003cli\u003e\u003ca href=\"https://www.dropbox.com/help?_tk=fof\"\u003ePusat bantuan\u003c/a\u003e\u003c/li\u003e \u003cli\u003e\u003ca href=\"https://www.dropbox.com/login?_tk=fof\"\u003eMasuk\u003c/a\u003e\u003c/li\u003e \u003cli\u003e\u003ca href=\"https://www.dropbox.com/register?_tk=fof\"\u003eDapatkan akun gratis\u003c/a\u003e\u003c/li\u003e \u003cli\u003e\u003ca href=\"https://www.dropbox.com/plus?_tk=fof\"\u003eDropbox Plus\u003c/a\u003e\u003c/li\u003e \u003cli\u003e\u003ca href=\"https://www.dropbox.com/business?_tk=fof\"\u003eDropbox Business\u003c/a\u003e\u003c/li\u003e \u003c/ul\u003e \u003c/div\u003e \u003c/div\u003e", "es": "\u003cdiv class=\"not-found\"\u003e \u003ch1\u003eError (4xx)\u003c/h1\u003e No hemos encontrado la p\u00e1gina que est\u00e1s buscando. \u003cdiv class=\"not-found--links\"\u003e Aqu\u00ed tienes algunos enlaces que tal vez puedan ayudarte: \u003cul\u003e \u003cli\u003e\u003ca href=\"https://www.dropbox.com/home?_tk=fof\"\u003eInicio\u003c/a\u003e\u003c/li\u003e \u003cli\u003e\u003ca href=\"https://www.dropbox.com/help?_tk=fof\"\u003eCentro de ayuda\u003c/a\u003e\u003c/li\u003e \u003cli\u003e\u003ca href=\"https://www.dropbox.com/login?_tk=fof\"\u003eIniciar sesi\u00f3n\u003c/a\u003e\u003c/li\u003e \u003cli\u003e\u003ca href=\"https://www.dropbox.com/register?_tk=fof\"\u003eObtener una cuenta gratis\u003c/a\u003e\u003c/li\u003e \u003cli\u003e\u003ca href=\"https://www.dropbox.com/plus?_tk=fof\"\u003eDropbox Plus\u003c/a\u003e\u003c/li\u003e \u003cli\u003e\u003ca href=\"https://www.dropbox.com/business?_tk=fof\"\u003eDropbox Business\u003c/a\u003e\u003c/li\u003e \u003c/ul\u003e \u003c/div\u003e \u003c/div\u003e"};
function read_cookie (name) {
        var nameEQ = name + "=";
        var ca = document.cookie.split(';');
        for (var i = 0; i < ca.length; i++) {
            var c = ca[i];
            while (c.charAt(0) == ' ') {
                c = c.substring(1, c.length);
            }
            if (c.indexOf(nameEQ) === 0) {
                return c.substring(nameEQ.length, c.length);
            }
        }
        return null;
}
function localize() {
    var locale = read_cookie('locale');
    if (locale) {
       var msg = message[locale];
       if (msg) {
           var elem = document.getElementById('errorbox');
           if (elem) {
               elem.innerHTML = msg;
           }
       }
    }
}
localize();
</script>

</body>
</html>

7347.530 (2) Dropbox: Attempt to upload: backup_2018-06-17-1445_Sportsii_75d09f5279bd-themes.zip to: backup_2018-06-17-1445_Sportsii_75d09f5279bd-themes.zip
7350.561 (2) Dropbox chunked upload: 57.2 % uploaded (AAAAAAAAANucJJGm3GDqLg, 10485760, 10240 KB)
7358.355 (2) Dropbox chunked upload: 100 % uploaded (AAAAAAAAANucJJGm3GDqLg, 18331576, 10240 KB)
7359.765 (2) Recording as successfully uploaded: backup_2018-06-17-1445_Sportsii_75d09f5279bd-themes.zip (5b0c32565e0bb50e9cf8b00ee1f1c102)
7359.773 (2) Deleting local file: backup_2018-06-17-1445_Sportsii_75d09f5279bd-themes.zip: OK
7359.774 (2) Dropbox: File upload success (backup_2018-06-17-1445_Sportsii_75d09f5279bd-themes.zip): 17901 KB in 12s (1462 KB/s)
7360.090 (2) Dropbox quota usage: used=487.6 MB, total=2048 MB, available=1560.4 MB
7360.092 (2) Dropbox: Attempt to upload: backup_2018-06-17-1445_Sportsii_75d09f5279bd-uploads.zip to: backup_2018-06-17-1445_Sportsii_75d09f5279bd-uploads.zip
7375.419 (2) Dropbox chunked upload: 26.6 % uploaded (AAAAAAAAANyGbT5_aYfoqg, 10485760, 10240 KB)
7386.442 (2) Dropbox chunked upload: 53.2 % uploaded (AAAAAAAAANyGbT5_aYfoqg, 20971520, 10240 KB)
7398.958 (2) Dropbox chunked upload: 79.8 % uploaded (AAAAAAAAANyGbT5_aYfoqg, 31457280, 10240 KB)
7409.240 (2) Dropbox chunked upload: 100 % uploaded (AAAAAAAAANyGbT5_aYfoqg, 39433663, 10240 KB)
7411.243 (2) Recording as successfully uploaded: backup_2018-06-17-1445_Sportsii_75d09f5279bd-uploads.zip (9247252d7b572dc99b84f0f45049713d)
7411.259 (2) Deleting local file: backup_2018-06-17-1445_Sportsii_75d09f5279bd-uploads.zip: OK
7411.261 (2) Dropbox: File upload success (backup_2018-06-17-1445_Sportsii_75d09f5279bd-uploads.zip): 38509 KB in 51s (752 KB/s)
7411.584 (2) Dropbox quota usage: used=525.2 MB, total=2048 MB, available=1522.8 MB
7411.585 (2) Dropbox: Attempt to upload: backup_2018-06-17-1445_Sportsii_75d09f5279bd-others.zip to: backup_2018-06-17-1445_Sportsii_75d09f5279bd-others.zip
7415.598 (2) Dropbox chunked upload: 100 % uploaded (AAAAAAAAAN0Ac7pCY_MZuA, 2506190, 10240 KB)
7417.711 (2) Recording as successfully uploaded: backup_2018-06-17-1445_Sportsii_75d09f5279bd-others.zip (6e1cd79fd083047aaf7ef4577147eec9)
7417.716 (2) Deleting local file: backup_2018-06-17-1445_Sportsii_75d09f5279bd-others.zip: OK
7417.717 (2) Dropbox: File upload success (backup_2018-06-17-1445_Sportsii_75d09f5279bd-others.zip): 2447 KB in 6s (399 KB/s)
7418.041 (2) Dropbox quota usage: used=527.6 MB, total=2048 MB, available=1520.4 MB
7418.043 (2) Dropbox: Attempt to upload: backup_2018-06-17-1445_Sportsii_75d09f5279bd-db.gz to: backup_2018-06-17-1445_Sportsii_75d09f5279bd-db.gz
7419.427 (2) Dropbox chunked upload: 100 % uploaded (AAAAAAAAAN7fmipBjTtiNw, 812254, 10240 KB)
7421.132 (2) Recording as successfully uploaded: backup_2018-06-17-1445_Sportsii_75d09f5279bd-db.gz (ff9c986c09ae723e8a24064d615c0bee)
7421.136 (2) Deleting local file: backup_2018-06-17-1445_Sportsii_75d09f5279bd-db.gz: OK
7421.137 (2) Dropbox: File upload success (backup_2018-06-17-1445_Sportsii_75d09f5279bd-db.gz): 793 KB in 3s (256 KB/s)
7421.142 (2) Retain: beginning examination of existing backup sets; user setting: retain_files=4, retain_db=4
7421.144 (2) Number of backup sets in history: 5; groups (db): 1
7421.145 (2) Examining (for databases) backup set with group_id=0, nonce=75d09f5279bd, datestamp=1529261112 (Jun 17 2018 18:45:12)
7421.146 (2) This backup set is the backup set just made, so will not be deleted.
7421.146 (2) Examining (for databases) backup set with group_id=0, nonce=0010ea338611, datestamp=1528657857 (Jun 10 2018 19:10:57)
7421.146 (2) This backup set remains non-empty (f=1/d=1); will retain in history
7421.146 (2) Examining (for databases) backup set with group_id=0, nonce=93b3bf4725d2, datestamp=1528054531 (Jun 03 2018 19:35:31)
7421.146 (2) This backup set remains non-empty (f=1/d=1); will retain in history
7421.147 (2) Examining (for databases) backup set with group_id=0, nonce=abb81e812c21, datestamp=1527450031 (May 27 2018 19:40:31)
7421.147 (2) This backup set remains non-empty (f=1/d=1); will retain in history
7421.147 (2) Examining (for databases) backup set with group_id=0, nonce=1103cc9e0d5b, datestamp=1526841940 (May 20 2018 18:45:40)
7421.147 (2) 1526841940: db: this set includes a database (backup_2018-05-20-1445_Sportsii_1103cc9e0d5b-db.gz); db count is now 4
7421.147 (2) 1526841940: db: over retain limit (4); will delete this database
7421.147 (2) Delete file: backup_2018-05-20-1445_Sportsii_1103cc9e0d5b-db.gz, service=dropbox
7421.148 (2) Dropbox: request deletion: backup_2018-05-20-1445_Sportsii_1103cc9e0d5b-db.gz
7421.863 (2) Dropbox: delete succeeded
7421.867 (2) This backup set remains non-empty (f=1/d=0); will retain in history
7421.868 (2) Number of backup sets in history: 5; groups (files): 1
7421.869 (2) Examining (for files) backup set with nonce=75d09f5279bd, datestamp=1529261112 (Jun 17 2018 18:45:12)
7421.869 (2) This backup set is the backup set just made, so will not be deleted.
7421.870 (2) This backup set is the backup set just made, so will not be deleted.
7421.870 (2) This backup set is the backup set just made, so will not be deleted.
7421.871 (2) This backup set is the backup set just made, so will not be deleted.
7421.871 (2) This backup set remains non-empty (f=1/d=1); will retain in history
7421.872 (2) Examining (for files) backup set with nonce=0010ea338611, datestamp=1528657857 (Jun 10 2018 19:10:57)
7421.872 (2) This backup set remains non-empty (f=1/d=1); will retain in history
7421.872 (2) Examining (for files) backup set with nonce=93b3bf4725d2, datestamp=1528054531 (Jun 03 2018 19:35:31)
7421.872 (2) This backup set remains non-empty (f=1/d=1); will retain in history
7421.872 (2) Examining (for files) backup set with nonce=abb81e812c21, datestamp=1527450031 (May 27 2018 19:40:31)
7421.872 (2) This backup set remains non-empty (f=1/d=1); will retain in history
7421.872 (2) Examining (for files) backup set with nonce=1103cc9e0d5b, datestamp=1526841940 (May 20 2018 18:45:40)
7421.872 (2) plugins: over retain limit (4); will delete this file entity
7421.873 (2) themes: over retain limit (4); will delete this file entity
7421.873 (2) uploads: over retain limit (4); will delete this file entity
7421.873 (2) others: over retain limit (4); will delete this file entity
7421.873 (2) Delete file: backup_2018-05-20-1445_Sportsii_1103cc9e0d5b-plugins.zip, service=dropbox
7421.874 (2) Delete file: backup_2018-05-20-1445_Sportsii_1103cc9e0d5b-themes.zip, service=dropbox
7421.874 (2) Delete file: backup_2018-05-20-1445_Sportsii_1103cc9e0d5b-uploads.zip, service=dropbox
7421.875 (2) Delete file: backup_2018-05-20-1445_Sportsii_1103cc9e0d5b-others.zip, service=dropbox
7421.876 (2) Dropbox: request deletion: backup_2018-05-20-1445_Sportsii_1103cc9e0d5b-plugins.zip
7422.629 (2) Dropbox: delete succeeded
7422.631 (2) Dropbox: request deletion: backup_2018-05-20-1445_Sportsii_1103cc9e0d5b-themes.zip
7423.275 (2) Dropbox: delete succeeded
7423.276 (2) Dropbox: request deletion: backup_2018-05-20-1445_Sportsii_1103cc9e0d5b-uploads.zip
7423.923 (2) Dropbox: delete succeeded
7423.925 (2) Dropbox: request deletion: backup_2018-05-20-1445_Sportsii_1103cc9e0d5b-others.zip
7424.597 (2) Dropbox: delete succeeded
7424.600 (2) This backup set is now empty; will remove from history
7424.601 (2) Deleting log file (log.1103cc9e0d5b.txt)
7424.637 (2) Retain: saving new backup history (sets now: 4) and finishing retain operation
7424.642 (2) Resume backup (75d09f5279bd, 2): finish run
7424.643 (2) There were no errors in the uploads, so the 'resume' event (3) is being unscheduled
7424.647 (2) Fetching RSS news feed
7425.081 (2) Fetched RSS news feed; result is a: SimplePie
7425.405 (2) Sending email ('Files and database (Full backup)') report (attachments: 1, size: 97.2 KB) to: info@...
7425.838 (2) The backup apparently succeeded (with warnings) and is now complete
